\relax 
\providecommand\hyper@newdestlabel[2]{}
\providecommand\HyperFirstAtBeginDocument{\AtBeginDocument}
\HyperFirstAtBeginDocument{\ifx\hyper@anchor\@undefined
\global\let\oldcontentsline\contentsline
\gdef\contentsline#1#2#3#4{\oldcontentsline{#1}{#2}{#3}}
\global\let\oldnewlabel\newlabel
\gdef\newlabel#1#2{\newlabelxx{#1}#2}
\gdef\newlabelxx#1#2#3#4#5#6{\oldnewlabel{#1}{{#2}{#3}}}
\AtEndDocument{\ifx\hyper@anchor\@undefined
\let\contentsline\oldcontentsline
\let\newlabel\oldnewlabel
\fi}
\fi}
\global\let\hyper@last\relax 
\gdef\HyperFirstAtBeginDocument#1{#1}
\providecommand*\HyPL@Entry[1]{}
\HyPL@Entry{0<</S/D>>}
\@writefile{toc}{\contentsline {section}{\numberline {1}Introduction}{2}{section.1}}
\@writefile{toc}{\contentsline {subsection}{\numberline {1.1}Numerical Problem}{2}{subsection.1.1}}
\newlabel{eq:diff_eq}{{1}{2}{Numerical Problem}{equation.1.1}{}}
\@writefile{toc}{\contentsline {subsection}{\numberline {1.2}Notation and General Assumptions}{2}{subsection.1.2}}
\citation{Douglas1955}
\citation{Lee}
\citation{Douglas1955}
\citation{Douglas1955}
\citation{Petros}
\@writefile{toc}{\contentsline {section}{\numberline {2}Computational Algorithms}{3}{section.2}}
\newlabel{sec:2}{{2}{3}{Computational Algorithms}{section.2}{}}
\@writefile{toc}{\contentsline {subsection}{\numberline {2.1}Alernating Direction Implicit (ADI) Solver}{3}{subsection.2.1}}
\@writefile{toc}{\contentsline {subsection}{\numberline {2.2}Particle Strenght Exchange (PSE) Solver}{3}{subsection.2.2}}
\citation{Petros}
\@writefile{loa}{\contentsline {algorithm}{\numberline {1}{\ignorespaces Thomas Algorithm\relax }}{4}{algorithm.1}}
\providecommand*\caption@xref[2]{\@setref\relax\@undefined{#1}}
\newlabel{alg:thomas}{{1}{4}{Thomas Algorithm\relax }{algorithm.1}{}}
\newlabel{thm4}{{1}{4}{\cite {Petros}}{theorem.1}{}}
\citation{Butcher2008}
\@writefile{lof}{\contentsline {figure}{\numberline {1}{\ignorespaces Ghost particles reflections. The red $\times $ denotes the place at which the kernel (black) is centered. The dark arrows represent the reflection of out of boundary particle to a real particle which value of $\rho _p$ is used. Orange particles are located at the zero boundary. The reflections to zero are not shown with arrows.\relax }}{5}{figure.caption.2}}
\newlabel{fig:boundary}{{1}{5}{Ghost particles reflections. The red $\times $ denotes the place at which the kernel (black) is centered. The dark arrows represent the reflection of out of boundary particle to a real particle which value of $\rho _p$ is used. Orange particles are located at the zero boundary. The reflections to zero are not shown with arrows.\relax }{figure.caption.2}{}}
\newlabel{eq:update_pse}{{10}{5}{Particle Strenght Exchange (PSE) Solver}{equation.2.10}{}}
\newlabel{eq:kernel}{{11}{5}{Particle Strenght Exchange (PSE) Solver}{equation.2.11}{}}
\newlabel{eq:clf}{{12}{5}{Particle Strenght Exchange (PSE) Solver}{equation.2.12}{}}
\citation{Williams2009}
\@writefile{toc}{\contentsline {section}{\numberline {3}Background}{6}{section.3}}
\@writefile{toc}{\contentsline {subsection}{\numberline {3.1}Implementation analysis}{6}{subsection.3.1}}
\newlabel{eq:opint}{{13}{6}{Implementation analysis}{equation.3.13}{}}
\citation{Firasta2008}
\citation{Archibald1986}
\@writefile{toc}{\contentsline {subsection}{\numberline {3.2}Technologies used}{7}{subsection.3.2}}
\citation{CSCS}
\citation{intel}
\@writefile{lof}{\contentsline {figure}{\numberline {2}{\ignorespaces Roofline plot for Piz Dora node at CSCS Lugano facility.\relax }}{8}{figure.caption.3}}
\newlabel{fig:roofline_1}{{2}{8}{Roofline plot for Piz Dora node at CSCS Lugano facility.\relax }{figure.caption.3}{}}
\@writefile{toc}{\contentsline {section}{\numberline {4}Implementation and Validation}{8}{section.4}}
\@writefile{toc}{\contentsline {subsection}{\numberline {4.1}Implementation}{8}{subsection.4.1}}
\@writefile{toc}{\contentsline {subsection}{\numberline {4.2}Validation}{8}{subsection.4.2}}
\@writefile{lof}{\contentsline {figure}{\numberline {3}{\ignorespaces A visual comparison of the evolution with analytic solution.\relax }}{9}{figure.caption.4}}
\newlabel{fig:visual}{{3}{9}{A visual comparison of the evolution with analytic solution.\relax }{figure.caption.4}{}}
\@writefile{toc}{\contentsline {section}{\numberline {5}Implementation and Optimizations}{9}{section.5}}
\@writefile{toc}{\contentsline {subsection}{\numberline {5.1}General}{9}{subsection.5.1}}
\@writefile{lof}{\contentsline {figure}{\numberline {4}{\ignorespaces Convergence tests for ADI. We have calculate the absolute error as a difference between the analytical solution. The time step used was $\delta t = 0.01$ and space the step $h = 0.001$ for the two simulations. \relax }}{10}{figure.caption.5}}
\newlabel{fig:cvg_adi}{{4}{10}{Convergence tests for ADI. We have calculate the absolute error as a difference between the analytical solution. The time step used was $\delta t = 0.01$ and space the step $h = 0.001$ for the two simulations. \relax }{figure.caption.5}{}}
\@writefile{lof}{\contentsline {figure}{\numberline {5}{\ignorespaces Convergence test for PSE. We have calculate the absolute error as a difference between the analytical solution. The time step used was $\delta t = 0.03225$ and the space step $h = 0.00001$ for the two simulations. \relax }}{10}{figure.caption.6}}
\newlabel{fig:cvg_pse}{{5}{10}{Convergence test for PSE. We have calculate the absolute error as a difference between the analytical solution. The time step used was $\delta t = 0.03225$ and the space step $h = 0.00001$ for the two simulations. \relax }{figure.caption.6}{}}
\@writefile{toc}{\contentsline {subsection}{\numberline {5.2}ADI}{11}{subsection.5.2}}
\newlabel{code:1}{{1}{11}{ADI scalar}{lstlisting.1}{}}
\@writefile{lol}{\contentsline {lstlisting}{\numberline {1}ADI scalar}{11}{lstlisting.1}}
\@writefile{lof}{\contentsline {figure}{\numberline {6}{\ignorespaces This figure demonstrates the usage of AVX transposition to speedup the computation of ADI. The four AVX vectors (green, orange, yellow, grey) are loaded in contiguous memmory transposed subsequently a stencil can be calculated on them where for example the orange row could be the middle row update. Here this obviously corresponds to unrolled outer loop by 4 as all four vectors are used at once (in fact, the code is unrolled on 8).\relax }}{13}{figure.caption.7}}
\newlabel{fig:intrinsics}{{6}{13}{This figure demonstrates the usage of AVX transposition to speedup the computation of ADI. The four AVX vectors (green, orange, yellow, grey) are loaded in contiguous memmory transposed subsequently a stencil can be calculated on them where for example the orange row could be the middle row update. Here this obviously corresponds to unrolled outer loop by 4 as all four vectors are used at once (in fact, the code is unrolled on 8).\relax }{figure.caption.7}{}}
\@writefile{toc}{\contentsline {subsection}{\numberline {5.3}PSE}{13}{subsection.5.3}}
\@writefile{toc}{\contentsline {section}{\numberline {6}Discussion and Results}{14}{section.6}}
\@writefile{toc}{\contentsline {subsection}{\numberline {6.1}ADI}{15}{subsection.6.1}}
\@writefile{toc}{\contentsline {subsubsection}{\numberline {6.1.1}Perfromance and Roofline analysis}{15}{subsubsection.6.1.1}}
\@writefile{toc}{\contentsline {subsubsection}{\numberline {6.1.2}Parallelization}{15}{subsubsection.6.1.2}}
\@writefile{lof}{\contentsline {figure}{\numberline {7}{\ignorespaces The performance of ADI algorithm for different problem sizes. The first and second line represent maximal data sizes at which 3 lines of grid can be fit into L1 cache and L2 cache, respectively.\relax }}{16}{figure.caption.8}}
\newlabel{fig:perf_adi}{{7}{16}{The performance of ADI algorithm for different problem sizes. The first and second line represent maximal data sizes at which 3 lines of grid can be fit into L1 cache and L2 cache, respectively.\relax }{figure.caption.8}{}}
\@writefile{lof}{\contentsline {figure}{\numberline {8}{\ignorespaces The performance of ADI algorithm for different problem size. The first and second line represent maximal data sizes at which 3 lines of grid can be fit into L1 cache and L2 cache, respectively. We split the two steps in our profiling and see that the first (with bad access) achieves poorer performace while the second (2, contigous write access) achieves better performance.\relax }}{16}{figure.caption.9}}
\newlabel{fig:perf_split_adi}{{8}{16}{The performance of ADI algorithm for different problem size. The first and second line represent maximal data sizes at which 3 lines of grid can be fit into L1 cache and L2 cache, respectively. We split the two steps in our profiling and see that the first (with bad access) achieves poorer performace while the second (2, contigous write access) achieves better performance.\relax }{figure.caption.9}{}}
\@writefile{lof}{\contentsline {figure}{\numberline {9}{\ignorespaces The roofline plot for Dora with ADI algorithm noted. We show the theoretical bandwith along with measured one. The vertical black line represents the operational intensity of ADI derived from first principle and the second presents operational intensity where 3 times more memmory traffic occurs. \relax }}{17}{figure.caption.10}}
\newlabel{fig:roofline}{{9}{17}{The roofline plot for Dora with ADI algorithm noted. We show the theoretical bandwith along with measured one. The vertical black line represents the operational intensity of ADI derived from first principle and the second presents operational intensity where 3 times more memmory traffic occurs. \relax }{figure.caption.10}{}}
\@writefile{lof}{\contentsline {figure}{\numberline {10}{\ignorespaces Thread-level parallelism speedup with respect to code run on a single core for ADI solver. We present two best implementations: unrolled and vector ISPC.\relax }}{17}{figure.caption.11}}
\newlabel{fig:adi_strong_scale}{{10}{17}{Thread-level parallelism speedup with respect to code run on a single core for ADI solver. We present two best implementations: unrolled and vector ISPC.\relax }{figure.caption.11}{}}
\@writefile{lof}{\contentsline {figure}{\numberline {11}{\ignorespaces Thread-level parallelism speedup with growing input for ADI. At each point each processor should operate on constant size problem. The problem starts at $ 512 \times 512$ size and doubles for next point while number of processors grows by factor of $4$. \relax }}{18}{figure.caption.12}}
\newlabel{fig:adi_weak_scale}{{11}{18}{Thread-level parallelism speedup with growing input for ADI. At each point each processor should operate on constant size problem. The problem starts at $ 512 \times 512$ size and doubles for next point while number of processors grows by factor of $4$. \relax }{figure.caption.12}{}}
\@writefile{toc}{\contentsline {subsubsection}{\numberline {6.1.3}Perftool profiling and TLB}{18}{subsubsection.6.1.3}}
\@writefile{lof}{\contentsline {figure}{\numberline {12}{\ignorespaces TLB load misses on $2048\times 2048$ grid on 10 time iterations. Results were procuded using \emph  {pertools}.\relax }}{19}{figure.caption.13}}
\newlabel{fig:tlb}{{12}{19}{TLB load misses on $2048\times 2048$ grid on 10 time iterations. Results were procuded using \emph {pertools}.\relax }{figure.caption.13}{}}
\@writefile{toc}{\contentsline {subsection}{\numberline {6.2}PSE}{19}{subsection.6.2}}
\@writefile{toc}{\contentsline {subsubsection}{\numberline {6.2.1}Perfromance and Roofline analysis}{19}{subsubsection.6.2.1}}
\@writefile{lof}{\contentsline {figure}{\numberline {13}{\ignorespaces The performance of PSE solver for three implemntations scalar, vector ISPC and implementation with precomputed lookup table. We note that the last implementation has different number of floating point operations so direct comparison cannot be made.\relax }}{20}{figure.caption.14}}
\newlabel{fig:perf_pse}{{13}{20}{The performance of PSE solver for three implemntations scalar, vector ISPC and implementation with precomputed lookup table. We note that the last implementation has different number of floating point operations so direct comparison cannot be made.\relax }{figure.caption.14}{}}
\@writefile{toc}{\contentsline {subsubsection}{\numberline {6.2.2}Runtime Comparison}{20}{subsubsection.6.2.2}}
\@writefile{toc}{\contentsline {subsubsection}{\numberline {6.2.3}Parallelization}{20}{subsubsection.6.2.3}}
\@writefile{lof}{\contentsline {figure}{\numberline {14}{\ignorespaces The roofline plot for PSE solver with visualized worst case performance. We are compute bound even in the worst case scenario.\relax }}{21}{figure.caption.15}}
\newlabel{fig:roofline_pse}{{14}{21}{The roofline plot for PSE solver with visualized worst case performance. We are compute bound even in the worst case scenario.\relax }{figure.caption.15}{}}
\@writefile{lof}{\contentsline {figure}{\numberline {15}{\ignorespaces The runtime speedup of PSE solver for varying size with respect to the scalar code. \relax }}{21}{figure.caption.16}}
\newlabel{fig:pse_run}{{15}{21}{The runtime speedup of PSE solver for varying size with respect to the scalar code. \relax }{figure.caption.16}{}}
\bibstyle{plain}
\bibdata{bib.bib}
\bibcite{Archibald1986}{1}
\@writefile{lof}{\contentsline {figure}{\numberline {16}{\ignorespaces The thread-level parallelism speedup with respect to code run on one core for PSE solver. We present two implementations scalar and vector ISPC.\relax }}{22}{figure.caption.17}}
\newlabel{fig:pse_strong_scale}{{16}{22}{The thread-level parallelism speedup with respect to code run on one core for PSE solver. We present two implementations scalar and vector ISPC.\relax }{figure.caption.17}{}}
\@writefile{toc}{\contentsline {section}{\numberline {7}Conclusion}{22}{section.7}}
\bibcite{Butcher2008}{2}
\bibcite{Douglas1955}{3}
\bibcite{Firasta2008}{4}
\bibcite{intel}{5}
\bibcite{Petros}{6}
\bibcite{Lee}{7}
\bibcite{CSCS}{8}
\bibcite{Williams2009}{9}
\@writefile{lof}{\contentsline {figure}{\numberline {17}{\ignorespaces The thread-level parallelism speedup/slowdown with growing input for PSE. At each point each processor should operate on constant size problem. The problem starts at $ 512 \times 512$ size and doubles for next data point while number of processors grows by factor of $4$. Only first three points map to physical cores. \relax }}{23}{figure.caption.18}}
\newlabel{fig:pse_weak_scale}{{17}{23}{The thread-level parallelism speedup/slowdown with growing input for PSE. At each point each processor should operate on constant size problem. The problem starts at $ 512 \times 512$ size and doubles for next data point while number of processors grows by factor of $4$. Only first three points map to physical cores. \relax }{figure.caption.18}{}}
