
#################################################################
#                                                               #
#            CrayPat-lite Performance Statistics                #
#                                                               #
#################################################################

CrayPat/X:  Version 6.3.2 Revision rc1/6.3.2  02/25/16 18:26:21
Experiment:                  lite  lite/sample_profile
Number of PEs (MPI ranks):      1
Numbers of PEs per Node:        1
Numbers of Threads per PE:     18
Number of Cores per Socket:    18
Execution start time:  Sat Aug 13 23:34:19 2016
System name and speed:  nid00478  2101 MHz (approx)

Avg Process Time:        1.53 secs              
High Memory:             9.98 MBytes       9.98 MBytes per PE
MFLOPS (aggregate):    415.36 M/sec      415.36 M/sec per PE
I/O Write Rate:     15.750628 MBytes/sec        

Table 1:  Profile by Function Group and Function (top 7 functions shown)

  Samp% |  Samp | Imb. |  Imb. |Group
        |       | Samp | Samp% | Function
        |       |      |       |  Thread=HIDE
       
 100.0% | 142.0 |   -- |    -- |Total
|---------------------------------------------------------
| 100.0% | 142.0 |   -- |    -- |ETC
||--------------------------------------------------------
||  38.7% |  55.0 |   -- |    -- |GOMP_parallel
||  14.8% |  21.0 | 11.5 | 27.1% |gomp_team_barrier_wait_end
||  13.4% |  19.0 |  7.1 | 31.4% |__memset_sse2
||  12.0% |  17.0 |   -- |    -- |__lll_timedwait_tid
||   8.5% |  12.0 |  7.8 | 48.8% |adi_full_1
||   4.9% |   7.0 |   -- |    -- |main
||   4.9% |   7.0 |  2.3 | 30.9% |_int_free
||   2.1% |   3.0 |  3.4 | 45.6% |adi_full_2
|=========================================================

===================  Observations and suggestions  ===================


MPI utilization:

    No suggestions were made because each node has only one rank.

=========================  End Observations  =========================

Table 2:  File Output Stats by Filename

    Write |    Write | Write Rate | Writes | Bytes/ |File Name[max10]
     Time |   MBytes | MBytes/sec |        |   Call |
         
 0.000027 | 0.000427 |  15.750628 |   14.0 |  32.00 |Total
|--------------------------------------------------------------------
| 0.000027 | 0.000427 |  15.750628 |   14.0 |  32.00 |stdout
|====================================================================

Program invocation:
  /users/course30/hpc_2_eth_course/Project_3/cache_experiment/../build/cache_scalar 18

For a complete report with expanded tables and notes, run:
  pat_report /users/course30/hpc_2_eth_course/Project_3/cache_experiment/cache_scalar+8480-478s.ap2

For help identifying callers of particular functions:
  pat_report -O callers+src /users/course30/hpc_2_eth_course/Project_3/cache_experiment/cache_scalar+8480-478s.ap2
To see the entire call tree:
  pat_report -O calltree+src /users/course30/hpc_2_eth_course/Project_3/cache_experiment/cache_scalar+8480-478s.ap2

For interactive, graphical performance analysis, run:
  app2 /users/course30/hpc_2_eth_course/Project_3/cache_experiment/cache_scalar+8480-478s.ap2

================  End of CrayPat-lite output  ==========================
