
#################################################################
#                                                               #
#            CrayPat-lite Performance Statistics                #
#                                                               #
#################################################################

CrayPat/X:  Version 6.3.2 Revision rc1/6.3.2  02/25/16 18:26:21
Experiment:                  lite  lite/sample_profile
Number of PEs (MPI ranks):      1
Numbers of PEs per Node:        1
Numbers of Threads per PE:      6
Number of Cores per Socket:    18
Execution start time:  Sat Aug 13 23:32:11 2016
System name and speed:  nid00478  2101 MHz (approx)

Avg Process Time:        1.94 secs              
High Memory:             6.07 MBytes       6.07 MBytes per PE
MFLOPS (aggregate):    846.65 M/sec      846.65 M/sec per PE
I/O Write Rate:     16.062343 MBytes/sec        

Table 1:  Profile by Function Group and Function (top 4 functions shown)

  Samp% |  Samp | Imb. |  Imb. |Group
        |       | Samp | Samp% | Function
        |       |      |       |  Thread=HIDE
       
 100.0% | 183.0 |   -- |    -- |Total
|---------------------------------------------------------
|  99.5% | 182.0 |   -- |    -- |ETC
||--------------------------------------------------------
||  71.6% | 131.0 |   -- |    -- |GOMP_parallel
||  10.4% |  19.0 |  3.0 | 18.9% |gomp_team_barrier_wait_end
||   9.3% |  17.0 |  2.3 | 16.5% |__memset_sse2
||   4.4% |   8.0 |   -- |    -- |main
||   2.7% |   5.0 |   -- |    -- |__lll_timedwait_tid
|=========================================================

===================  Observations and suggestions  ===================


MPI utilization:

    No suggestions were made because each node has only one rank.

=========================  End Observations  =========================

Table 2:  File Output Stats by Filename

    Write |    Write | Write Rate | Writes | Bytes/ |File Name[max10]
     Time |   MBytes | MBytes/sec |        |   Call |
         
 0.000027 | 0.000427 |  16.062343 |   14.0 |  32.00 |Total
|--------------------------------------------------------------------
| 0.000027 | 0.000427 |  16.062343 |   14.0 |  32.00 |stdout
|====================================================================

Program invocation:
  /users/course30/hpc_2_eth_course/Project_3/cache_experiment/../build/cache_parallel 6

For a complete report with expanded tables and notes, run:
  pat_report /users/course30/hpc_2_eth_course/Project_3/cache_experiment/cache_parallel+7251-478s.ap2

For help identifying callers of particular functions:
  pat_report -O callers+src /users/course30/hpc_2_eth_course/Project_3/cache_experiment/cache_parallel+7251-478s.ap2
To see the entire call tree:
  pat_report -O calltree+src /users/course30/hpc_2_eth_course/Project_3/cache_experiment/cache_parallel+7251-478s.ap2

For interactive, graphical performance analysis, run:
  app2 /users/course30/hpc_2_eth_course/Project_3/cache_experiment/cache_parallel+7251-478s.ap2

================  End of CrayPat-lite output  ==========================
