
#################################################################
#                                                               #
#            CrayPat-lite Performance Statistics                #
#                                                               #
#################################################################

CrayPat/X:  Version 6.3.2 Revision rc1/6.3.2  02/25/16 18:26:21
Experiment:                  lite  lite/sample_profile
Number of PEs (MPI ranks):      1
Numbers of PEs per Node:        1
Numbers of Threads per PE:     17
Number of Cores per Socket:    18
Execution start time:  Sat Aug 13 23:34:05 2016
System name and speed:  nid00478  2101 MHz (approx)

Avg Process Time:        1.09 secs              
High Memory:             8.70 MBytes       8.70 MBytes per PE
MFLOPS (aggregate):    709.74 M/sec      709.74 M/sec per PE
I/O Write Rate:     15.719608 MBytes/sec        

Table 1:  Profile by Function Group and Function (top 5 functions shown)

  Samp% | Samp | Imb. |  Imb. |Group
        |      | Samp | Samp% | Function
        |      |      |       |  Thread=HIDE
       
 100.0% | 98.0 |   -- |    -- |Total
|--------------------------------------------------------
| 100.0% | 98.0 |   -- |    -- |ETC
||-------------------------------------------------------
||  57.1% | 56.0 |   -- |    -- |GOMP_parallel
||  16.3% | 16.0 |   -- |    -- |__lll_timedwait_tid
||  10.2% | 10.0 |  5.6 | 33.3% |gomp_team_barrier_wait_end
||   9.2% |  9.0 |   -- |    -- |main
||   6.1% |  6.0 |  1.5 | 27.1% |__memset_sse2
||   1.0% |  1.0 |   -- |    -- |__run_exit_handlers
|========================================================

===================  Observations and suggestions  ===================


MPI utilization:

    No suggestions were made because each node has only one rank.

=========================  End Observations  =========================

Table 2:  File Output Stats by Filename

    Write |    Write | Write Rate | Writes | Bytes/ |File Name[max10]
     Time |   MBytes | MBytes/sec |        |   Call |
         
 0.000027 | 0.000426 |  15.719608 |   14.0 |  31.93 |Total
|--------------------------------------------------------------------
| 0.000027 | 0.000426 |  15.719608 |   14.0 |  31.93 |stdout
|====================================================================

Program invocation:
  /users/course30/hpc_2_eth_course/Project_3/cache_experiment/../build/cache_parallel 17

For a complete report with expanded tables and notes, run:
  pat_report /users/course30/hpc_2_eth_course/Project_3/cache_experiment/cache_parallel+8317-478s.ap2

For help identifying callers of particular functions:
  pat_report -O callers+src /users/course30/hpc_2_eth_course/Project_3/cache_experiment/cache_parallel+8317-478s.ap2
To see the entire call tree:
  pat_report -O calltree+src /users/course30/hpc_2_eth_course/Project_3/cache_experiment/cache_parallel+8317-478s.ap2

For interactive, graphical performance analysis, run:
  app2 /users/course30/hpc_2_eth_course/Project_3/cache_experiment/cache_parallel+8317-478s.ap2

================  End of CrayPat-lite output  ==========================
