
#################################################################
#                                                               #
#            CrayPat-lite Performance Statistics                #
#                                                               #
#################################################################

CrayPat/X:  Version 6.3.2 Revision rc1/6.3.2  02/25/16 18:26:21
Experiment:                  lite  lite/sample_profile
Number of PEs (MPI ranks):      1
Numbers of PEs per Node:        1
Numbers of Threads per PE:     18
Number of Cores per Socket:    18
Execution start time:  Sat Aug 13 23:34:15 2016
System name and speed:  nid00478  2101 MHz (approx)

Avg Process Time:        1.10 secs              
High Memory:             8.83 MBytes       8.83 MBytes per PE
MFLOPS (aggregate):    676.57 M/sec      676.57 M/sec per PE
I/O Write Rate:     15.812022 MBytes/sec        

Table 1:  Profile by Function Group and Function (top 7 functions shown)

  Samp% | Samp | Imb. |  Imb. |Group
        |      | Samp | Samp% | Function
        |      |      |       |  Thread=HIDE
       
 100.0% | 99.0 |   -- |    -- |Total
|--------------------------------------------------------
|  99.0% | 98.0 |   -- |    -- |ETC
||-------------------------------------------------------
||  58.6% | 58.0 |   -- |    -- |GOMP_parallel
||  17.2% | 17.0 |   -- |    -- |__lll_timedwait_tid
||   9.1% |  9.0 |  3.9 | 24.2% |gomp_team_barrier_wait_end
||   8.1% |  8.0 |   -- |    -- |main
||   3.0% |  3.0 |  2.6 | 38.7% |__memset_sse2
||   2.0% |  2.0 |  0.8 | 43.7% |_int_free
||   1.0% |  1.0 |   -- |    -- |__run_exit_handlers
||=======================================================
|   1.0% |  1.0 |   -- |    -- |RT
||-------------------------------------------------------
||   1.0% |  1.0 |   -- |    -- |munmap
|========================================================

===================  Observations and suggestions  ===================


MPI utilization:

    No suggestions were made because each node has only one rank.

=========================  End Observations  =========================

Table 2:  File Output Stats by Filename

    Write |    Write | Write Rate | Writes | Bytes/ |File Name[max10]
     Time |   MBytes | MBytes/sec |        |   Call |
         
 0.000027 | 0.000426 |  15.812022 |   14.0 |  31.93 |Total
|--------------------------------------------------------------------
| 0.000027 | 0.000426 |  15.812022 |   14.0 |  31.93 |stdout
|====================================================================

Program invocation:
  /users/course30/hpc_2_eth_course/Project_3/cache_experiment/../build/cache_parallel 18

For a complete report with expanded tables and notes, run:
  pat_report /users/course30/hpc_2_eth_course/Project_3/cache_experiment/cache_parallel+8425-478s.ap2

For help identifying callers of particular functions:
  pat_report -O callers+src /users/course30/hpc_2_eth_course/Project_3/cache_experiment/cache_parallel+8425-478s.ap2
To see the entire call tree:
  pat_report -O calltree+src /users/course30/hpc_2_eth_course/Project_3/cache_experiment/cache_parallel+8425-478s.ap2

For interactive, graphical performance analysis, run:
  app2 /users/course30/hpc_2_eth_course/Project_3/cache_experiment/cache_parallel+8425-478s.ap2

================  End of CrayPat-lite output  ==========================
