
#################################################################
#                                                               #
#            CrayPat-lite Performance Statistics                #
#                                                               #
#################################################################

CrayPat/X:  Version 6.3.2 Revision rc1/6.3.2  02/25/16 18:26:21
Experiment:                  lite  lite/sample_profile
Number of PEs (MPI ranks):      1
Numbers of PEs per Node:        1
Numbers of Threads per PE:     16
Number of Cores per Socket:    18
Execution start time:  Sat Aug 13 23:33:55 2016
System name and speed:  nid00478  2101 MHz (approx)

Avg Process Time:        1.22 secs              
High Memory:             8.81 MBytes       8.81 MBytes per PE
MFLOPS (aggregate):    640.13 M/sec      640.13 M/sec per PE
I/O Write Rate:     12.929141 MBytes/sec        

Table 1:  Profile by Function Group and Function (top 4 functions shown)

  Samp% |  Samp | Imb. |  Imb. |Group
        |       | Samp | Samp% | Function
        |       |      |       |  Thread=HIDE
       
 100.0% | 111.0 |   -- |    -- |Total
|---------------------------------------------------------
|  99.1% | 110.0 |   -- |    -- |ETC
||--------------------------------------------------------
||  57.7% |  64.0 |   -- |    -- |GOMP_parallel
||  14.4% |  16.0 |  4.8 | 24.4% |gomp_team_barrier_wait_end
||  13.5% |  15.0 |   -- |    -- |__lll_timedwait_tid
||   7.2% |   8.0 |   -- |    -- |main
||   4.5% |   5.0 |  3.4 | 40.7% |__memset_sse2
|=========================================================

===================  Observations and suggestions  ===================


MPI utilization:

    No suggestions were made because each node has only one rank.

=========================  End Observations  =========================

Table 2:  File Output Stats by Filename

    Write |    Write | Write Rate | Writes | Bytes/ |File Name[max10]
     Time |   MBytes | MBytes/sec |        |   Call |
         
 0.000033 | 0.000426 |  12.929141 |   14.0 |  31.93 |Total
|--------------------------------------------------------------------
| 0.000033 | 0.000426 |  12.929141 |   14.0 |  31.93 |stdout
|====================================================================

Program invocation:
  /users/course30/hpc_2_eth_course/Project_3/cache_experiment/../build/cache_parallel 16

For a complete report with expanded tables and notes, run:
  pat_report /users/course30/hpc_2_eth_course/Project_3/cache_experiment/cache_parallel+8211-478s.ap2

For help identifying callers of particular functions:
  pat_report -O callers+src /users/course30/hpc_2_eth_course/Project_3/cache_experiment/cache_parallel+8211-478s.ap2
To see the entire call tree:
  pat_report -O calltree+src /users/course30/hpc_2_eth_course/Project_3/cache_experiment/cache_parallel+8211-478s.ap2

For interactive, graphical performance analysis, run:
  app2 /users/course30/hpc_2_eth_course/Project_3/cache_experiment/cache_parallel+8211-478s.ap2

================  End of CrayPat-lite output  ==========================
