version: 1
creator: callgrind-3.10.1
pid: 2329
cmd:  ./build/diff_solver
part: 1


desc: I1 cache: 
desc: D1 cache: 
desc: LL cache: 

desc: Timerange: Basic block 0 - 2403404927
desc: Trigger: Program termination

positions: line
events: Ir
summary: 17270484096


ob=(4) /lib64/libm-2.19.so
fl=(4) ???
fn=(192) ceil
0 1
cob=(3) /lib64/libc-2.19.so
cfi=(3) ???
cfn=(184) __get_cpu_features
calls=1 0 
0 5
0 1
0 5

fn=(196) __log_finite
0 2
cob=(3)
cfi=(3)
cfn=(184)
calls=1 0 
0 5
0 1
0 8

fn=(204) floor
0 1
cob=(3)
cfi=(3)
cfn=(184)
calls=1 0 
0 5
0 1
0 5

fn=(1716) do_sin.isra.4
0 20580

fn=(172) __exp_finite
0 2
cob=(3)
cfi=(3)
cfn=(184)
calls=1 0 
0 5
cob=(1) /lib64/ld-2.19.so
cfi=(1) ???
cfn=(180) _dl_runtime_resolve
calls=1 0 
0 1657
0 5
0 8

fn=(198) rintf
0 1
cob=(3)
cfi=(3)
cfn=(184)
calls=1 0 
0 5
0 1
0 5

fn=(208) __atan2_finite
0 2
cob=(3)
cfi=(3)
cfn=(184)
calls=1 0 
0 5
0 1
0 8

fn=(210) sin
0 4
cob=(3)
cfi=(3)
cfn=(184)
calls=2 0 
0 10
0 2
0 16

fn=(190) ceilf
0 1
cob=(3)
cfi=(3)
cfn=(184)
calls=1 0 
0 5
0 1
0 5

fn=(202) floorf
0 1
cob=(3)
cfi=(3)
cfn=(184)
calls=1 0 
0 5
0 1
0 5

fn=(654) 0x0000000000005940
0 16

fn=(1712) __sin_avx
0 137200
cfn=(1714) do_cos.isra.2
calls=539 0 
0 21560
0 3185
cfn=(1714)
calls=637 0 
0 25480
0 57575
cfn=(1716)
calls=490 0 
0 20580
0 10045

fn=(186) cos
0 2
cob=(3)
cfi=(3)
cfn=(184)
calls=1 0 
0 5
0 1
0 8

fn=(194) __pow_finite
0 2
cob=(3)
cfi=(3)
cfn=(184)
calls=1 0 
0 5
0 1
0 5

fn=(188) rint
0 1
cob=(3)
cfi=(3)
cfn=(184)
calls=1 0 
0 5
0 1
0 5

fn=(206) __asin_finite
0 2
cob=(3)
cfi=(3)
cfn=(184)
calls=1 0 
0 5
0 1
0 5

fn=(1714)
0 47040

fn=(200) __acos_finite
0 2
cob=(3)
cfi=(3)
cfn=(184)
calls=1 0 
0 5
0 1
0 5

ob=(7) /lib64/libgcc_s.so.1
fl=(7) ???
fn=(322) 0x0000000000003570
0 17

fn=(310) __cpu_indicator_init
0 32
cfn=(312) 0x00000000000030f0
calls=1 0 
0 20
0 13
cfn=(312)
calls=1 0 
0 20
0 33
cfn=(316) 0x0000000000002fb0
calls=1 0 
0 87
0 10

fn=(312)
0 40

fn=(316)
0 87

ob=(1)
fl=(1)
fn=(20) _dl_new_object
0 135
cfn=(10) strlen
calls=9 0 
0 530
0 180
cfn=(24) calloc
calls=9 0 
0 455
0 9
0 108
cfn=(34) memcpy
calls=9 0 
0 250
0 514
cfn=(10)
calls=8 0 
0 378
0 214
cfn=(52) mempcpy
calls=8 0 
0 256
0 556
cfn=(28) malloc
calls=8 0 
0 272
0 8
0 40

fn=(50) _dl_important_hwcaps
0 79
cfn=(28)
calls=1 0 
0 34
0 1
0 162
cfn=(52)
calls=1 0 
0 22
0 5
cfn=(52)
calls=1 0 
0 22
0 4

fn=(56) fillin_rpath
0 20
cfn=(58) strsep
calls=1 0 
0 1106
0 12
cfn=(58)
calls=4 0 
0 2231
0 26
cfn=(60) expand_dynamic_string_token
calls=4 0 
0 1025
0 12
cfn=(10)
calls=4 0 
0 262
0 52
cfn=(28)
calls=2 0 
0 68
0 2
0 22
cfn=(52)
calls=2 0 
0 68
0 81
cfn=(66) free
calls=2 0 
0 12
0 2
0 4
cfn=(66)
calls=2 0 
0 150
0 2
0 69
cfn=(18) bcmp
calls=2 0 
0 196
0 57

fn=(60)
0 55
cfn=(54) index
calls=5 0 
0 211
0 45
cfn=(62) local_strdup
calls=5 0 
0 958

fn=(74) do_preload
0 17
cfn=(76) _dl_catch_error
calls=1 0 
0 2545
0 11

fn=(86) _dl_name_match_p
0 6006
cfn=(42) strcmp
calls=858 0 
0 6013
0 10353
cfn=(42)
calls=884 0 
0 19330
0 6916

fn=(100) mprotect
0 90

fn=(104) access
0 9

fn=(116) _dl_sysdep_read_whole_file
0 11
cfn=(90) open
calls=1 0 
0 5
0 7
cfn=(96) _fxstat
calls=1 0 
0 10
0 8
cfn=(102) close
calls=1 0 
0 5
0 13
cfn=(98) mmap
calls=1 0 
0 6
0 2

fn=(126) _wordcopy_fwd_aligned
0 36

fn=(146) _dl_relocate_object
0 16784
cob=(4)
cfi=(4)
cfn=(210)
calls=1 0 
0 16
cob=(4)
cfi=(4)
cfn=(208)
calls=1 0 
0 16
cob=(4)
cfi=(4)
cfn=(206)
calls=1 0 
0 13
cob=(4)
cfi=(4)
cfn=(204)
calls=1 0 
0 12
cob=(4)
cfi=(4)
cfn=(202)
calls=1 0 
0 12
cob=(4)
cfi=(4)
cfn=(200)
calls=1 0 
0 13
cob=(4)
cfi=(4)
cfn=(198)
calls=1 0 
0 12
cob=(4)
cfi=(4)
cfn=(196)
calls=1 0 
0 16
cob=(4)
cfi=(4)
cfn=(194)
calls=1 0 
0 13
cob=(4)
cfi=(4)
cfn=(192)
calls=1 0 
0 12
cob=(4)
cfi=(4)
cfn=(190)
calls=1 0 
0 12
cob=(4)
cfi=(4)
cfn=(188)
calls=1 0 
0 12
cob=(4)
cfi=(4)
cfn=(186)
calls=1 0 
0 16
cob=(4)
cfi=(4)
cfn=(172)
calls=1 0 
0 1677
0 214
cfn=(168) _dl_protect_relro
calls=10 0 
0 240
0 177651
cfn=(148) _dl_lookup_symbol_x
calls=1742 0 
0 1486910
0 80618
cob=(3)
cfi=(3)
cfn=(166) memcpy@GLIBC_2.2.5
calls=1 0 
0 13
cob=(3)
cfi=(3)
cfn=(164) gettimeofday
calls=1 0 
0 68
cob=(3)
cfi=(3)
cfn=(162) strncasecmp
calls=1 0 
0 6
cob=(3)
cfi=(3)
cfn=(158) time
calls=1 0 
0 68
cob=(3)
cfi=(3)
cfn=(154) strcasecmp
calls=1 0 
0 85
0 345
cfn=(34)
calls=2 0 
0 161
0 323
cfn=(148)
calls=5 0 
0 4048
0 33276

fn=(0) 0x0000000000001190
0 2
cfn=(2) _dl_start
calls=1 0 
0 1906807
0 14
cfn=(224) _dl_init
calls=1 0 
0 109203
0 3
cob=(11) /home/mojko/Documents/UNIVERSITY/HPC_2/Project_3/build/diff_solver
cfi=(11) /home/abuild/rpmbuild/BUILD/glibc-2.19/csu/../sysdeps/x86_64/start.S
cfn=(864) 0x0000000000401d06
calls=1 67 
0 4309059806

fn=(4) _dl_setup_hash
0 250

fn=(16) _dl_next_ld_env_entry
0 692

fn=(34)
0 1642

fn=(46) uname
0 5

fn=(76)
0 273
cfn=(78) _dl_initial_error_catch_tsd
calls=21 0 
0 42
0 168
cfn=(80) __sigsetjmp
calls=21 0 
0 399
0 126
cfn=(108) openaux
calls=20 0 
0 53323
cfn=(82) map_doit
calls=1 0 
0 2484
0 273

fn=(78)
0 46

fn=(128) _dl_receive_error
0 11
cfn=(78)
calls=1 0 
0 2
0 7
cfn=(130) version_check_doit
calls=1 0 
0 25858
0 10

fn=(130)
0 6
cfn=(132) _dl_check_all_versions
calls=1 0 
0 25848
0 4

fn=(2)
0 374
cfn=(4)
calls=1 0 
0 25
0 17
cfn=(6) _dl_sysdep_start
calls=1 0 
0 1905951
0 440

fn=(36) _dl_add_to_namespace_list
0 63
cfn=(38) rtld_lock_default_lock_recursive
calls=9 0 
0 18
0 352
cfn=(40) rtld_lock_default_unlock_recursive
calls=8 0 
0 16
0 13
cfn=(40)
calls=1 0 
0 2
0 2

fn=(40)
0 182

fn=(82)
0 9
cfn=(84) _dl_map_object
calls=1 0 
0 2472
0 3

fn=(96)
0 90

fn=(212) _dl_higher_prime_number
0 144

fn=(8) brk
0 12

fn=(12) sbrk
0 17

fn=(24)
0 184
cfn=(28)
calls=23 0 
0 892
0 23

fn=(28)
0 174
cfn=(32) __libc_memalign
calls=58 0 
0 1850
0 58

fn=(48) _dl_init_paths
0 13
cfn=(50)
calls=1 0 
0 329
0 3
cfn=(28)
calls=1 0 
0 34
0 1
0 13
cfn=(28)
calls=1 0 
0 34
0 1
0 81
cfn=(54)
calls=1 0 
0 128
0 4
cfn=(10)
calls=1 0 
0 241
0 8
cfn=(34)
calls=1 0 
0 136
0 1226
cfn=(28)
calls=1 0 
0 34
0 1
0 11
cfn=(56)
calls=1 0 
0 5479
0 17

fn=(66)
0 40
cfn=(68) memset
calls=2 0 
0 128
0 6

fn=(98)
0 156

fn=(110) open_path
0 343
cfn=(52)
calls=14 0 
0 476
0 616
cfn=(52)
calls=38 0 
0 764
0 152
cfn=(52)
calls=38 0 
0 998
0 418
cfn=(88) open_verify
calls=38 0 
0 1520
0 781
cfn=(112) _xstat
calls=4 0 
0 49
0 29

fn=(118) _dl_cache_libcmp
0 1735
cfn=(119) _dl_cache_libcmp'2
calls=8 0 
0 48
0 4637

fn=(119)
0 48

fn=(218) _dl_unload_cache
0 7
cfn=(220) munmap
calls=1 0 
0 5
0 3

fn=(10)
0 2853

fn=(54)
0 1079

fn=(62)
0 60
cfn=(10)
calls=12 0 
0 848
0 36
cfn=(28)
calls=12 0 
0 408
0 12
0 108
cfn=(34)
calls=12 0 
0 513

fn=(68)
0 9094

fn=(114) _dl_load_cache_lookup
0 1429
cfn=(118)
calls=74 0 
0 5723
0 327
cfn=(116)
calls=1 0 
0 67
0 10
cfn=(18)
calls=1 0 
0 112
0 15
cfn=(18)
calls=1 0 
0 89
0 94
cfn=(118)
calls=1 0 
0 71
0 21
cfn=(118)
calls=7 0 
0 626
0 325

fn=(120) _dl_next_tls_modid
0 24

fn=(122) cache_rpath.part.4
0 16

fn=(144) allocate_dtv
0 36
cob=(3)
cfi=(3)
cfn=(1440) calloc
calls=3 0 
0 911
cfn=(24)
calls=1 0 
0 43
0 4
0 40

fn=(148)
0 729012
cfn=(150) do_lookup_x
calls=1871 0 
0 831587
0 63268

fn=(168)
0 150
cfn=(100)
calls=10 0 
0 50
0 40

fn=(214) _dl_allocate_tls_init
0 336
cfn=(52)
calls=12 0 
0 204
0 60
cfn=(68)
calls=12 0 
0 1128
0 260

fn=(226) call_init.part.0
0 267
cob=(2) ???
cfi=(2) ???
cfn=(850) 0x0000000004a235b0
calls=1 0 
0 6
cob=(2)
cfi=(2)
cfn=(662) 0x0000000004cb3060
calls=1 0 
0 6
cob=(2)
cfi=(2)
cfn=(650) 0x0000000004fae390
calls=1 0 
0 6
cob=(2)
cfi=(2)
cfn=(330) 0x00000000052b0c08
calls=1 0 
0 6
cob=(2)
cfi=(2)
cfn=(306) 0x00000000054cfcc0
calls=1 0 
0 6
cob=(2)
cfi=(2)
cfn=(292) 0x0000000005ca9da0
calls=1 0 
0 6
cob=(3)
cfi=(3)
cfn=(278) _init
calls=1 0 
0 211
cob=(2)
cfi=(2)
cfn=(228) 0x00000000056e9530
calls=1 0 
0 7190
0 136
cob=(10) /usr/lib64/valgrind/vgpreload_core-amd64-linux.so
cfi=(10) ???
cfn=(854) 0x00000000000006c0
calls=1 0 
0 16
cob=(9) /usr/lib64/libstdc++.so.6.0.21
cfi=(9) ???
cfn=(666) 0x0000000000091d80
calls=1 0 
0 17
cob=(4)
cfi=(4)
cfn=(654)
calls=1 0 
0 16
cob=(8) /usr/lib64/libgomp.so.1.0.0
cfi=(8) ???
cfn=(334) 0x0000000000009600
calls=1 0 
0 17
cob=(7)
cfi=(7)
cfn=(310)
calls=1 0 
0 215
cob=(6) /lib64/libdl-2.19.so
cfi=(6) ???
cfn=(296) 0x0000000000000f90
calls=1 0 
0 16
cob=(3)
cfi=(3)
cfn=(286) init_cacheinfo
calls=1 0 
0 1092
cob=(5) /lib64/libpthread-2.19.so
cfi=(5) ???
cfn=(264) 0x0000000000006990
calls=1 0 
0 16
0 60
cob=(9)
cfi=(9)
cfn=(824) 0x0000000000091bf0
calls=1 0 
0 49
cob=(9)
cfi=(9)
cfn=(798) 0x0000000000091b30
calls=1 0 
0 49
cob=(9)
cfi=(9)
cfn=(780) 0x0000000000091ab0
calls=1 0 
0 33
cob=(9)
cfi=(9)
cfn=(762) 0x0000000000091a30
calls=1 0 
0 33
cob=(9)
cfi=(9)
cfn=(758) 0x00000000000919f0
calls=1 0 
0 144
cob=(9)
cfi=(9)
cfn=(756) 0x00000000000917c0
calls=1 0 
0 54
cob=(9)
cfi=(9)
cfn=(730) 0x00000000000916b0
calls=1 0 
0 73
cob=(9)
cfi=(9)
cfn=(720) 0x0000000000091620
calls=1 0 
0 1645
cob=(9)
cfi=(9)
cfn=(698) 0x0000000000091600
calls=1 0 
0 2347
cob=(9)
cfi=(9)
cfn=(674) 0x0000000000091580
calls=1 0 
0 2507
cob=(8)
cfi=(8)
cfn=(644) 0x0000000000009500
calls=1 0 
0 35
cob=(8)
cfi=(8)
cfn=(342) 0x0000000000007b90
calls=1 0 
0 92516
cob=(7)
cfi=(7)
cfn=(322)
calls=1 0 
0 17
cob=(6)
cfi=(6)
cfn=(304) init
calls=1 0 
0 3
cob=(5)
cfi=(5)
cfn=(272) elision_init
calls=1 0 
0 98
0 134

fn=(240) _dl_get_tls_static_info
0 5

fn=(92) read
0 40

fn=(94) _dl_map_object_from_fd
0 144
cfn=(70) _dl_debug_initialize
calls=8 0 
0 64
0 40
cfn=(96)
calls=8 0 
0 80
0 564
cfn=(20)
calls=8 0 
0 3657
0 2213
cfn=(120)
calls=3 0 
0 24
0 274
cfn=(98)
calls=8 0 
0 48
0 448
cfn=(68)
calls=8 0 
0 7692
0 256
cfn=(98)
calls=8 0 
0 48
0 64
cfn=(100)
calls=8 0 
0 40
0 2700
cfn=(102)
calls=3 0 
0 15
0 10
cfn=(102)
calls=5 0 
0 25
0 120
cfn=(4)
calls=8 0 
0 200
0 122
cfn=(36)
calls=8 0 
0 432
0 308
cfn=(98)
calls=3 0 
0 18
0 32

fn=(112)
0 49

fn=(124) memmove
0 180
cfn=(126)
calls=2 0 
0 36
0 4

fn=(132)
0 82
cfn=(134) _dl_check_map_versions
calls=10 0 
0 25689
0 77

fn=(138) init_tls
0 10
cfn=(24)
calls=1 0 
0 43
0 1
0 87
cfn=(140) _dl_determine_tlsoffset
calls=1 0 
0 141
0 1
cfn=(142) _dl_allocate_tls_storage
calls=1 0 
0 440
0 16

fn=(142)
0 7
cfn=(32)
calls=1 0 
0 51
0 1
0 312
cfn=(144)
calls=1 0 
0 63
0 6

fn=(150)
0 364150
cfn=(86)
calls=588 0 
0 31416
0 56360
cfn=(38)
calls=82 0 
0 164
0 8468
cfn=(212)
calls=2 0 
0 144
0 8
cfn=(24)
calls=2 0 
0 107
0 2
0 2370
cfn=(66)
calls=2 0 
0 12
0 458
cfn=(40)
calls=1 0 
0 2
0 324
cfn=(40)
calls=81 0 
0 162
0 3396
cfn=(24)
calls=1 0 
0 43
0 1
0 81861
cfn=(152) check_match.9478
calls=1842 0 
0 272917
0 9222

fn=(152)
0 39126
cfn=(42)
calls=111 0 
0 11177
0 49959
cfn=(42)
calls=1834 0 
0 168987
0 3668

fn=(170) _dl_add_to_slotinfo
0 60

fn=(38)
0 182

fn=(42)
0 22093
cfn=(43) strcmp'2
calls=2665 0 
0 184622
0 4584

fn=(43)
0 178012
cfn=(43)
calls=23131 0 
0 1029197
0 6610

fn=(44) _dl_discover_osversion
0 21
cfn=(46)
calls=1 0 
0 5
0 67

fn=(70)
0 89

fn=(102)
0 45

fn=(1852) _dl_allocate_tls
0 12
cfn=(144)
calls=3 0 
0 971
0 9
cfn=(214)
calls=3 0 
0 1491

fn=(6)
0 551
cfn=(8)
calls=1 0 
0 12
0 7
cfn=(12)
calls=1 0 
0 17
0 12
cfn=(14) dl_main
calls=1 0 
0 1905283
0 28
cfn=(10)
calls=1 0 
0 39
0 2

fn=(14)
0 39
cfn=(16)
calls=1 0 
0 200
0 4
cfn=(16)
calls=2 0 
0 492
0 157
cfn=(18)
calls=1 0 
0 120
0 9
cfn=(18)
calls=1 0 
0 26
0 19
cfn=(20)
calls=1 0 
0 248
0 12
cfn=(36)
calls=1 0 
0 34
0 139
cfn=(42)
calls=1 0 
0 7
0 283
cfn=(4)
calls=1 0 
0 25
0 7
cfn=(44)
calls=1 0 
0 93
0 82
cfn=(18)
calls=1 0 
0 80
0 7
cfn=(48)
calls=1 0 
0 7794
0 3
cfn=(70)
calls=1 0 
0 17
0 63
cfn=(72) _dl_debug_state
calls=1 0 
0 1
0 12
cfn=(104)
calls=1 0 
0 9
0 19
cfn=(106) _dl_map_object_deps
calls=1 0 
0 61075
0 184
cfn=(128)
calls=1 0 
0 25888
0 5
cfn=(138)
calls=1 0 
0 739
0 226
cfn=(146)
calls=9 0 
0 1793707
0 75
cfn=(214)
calls=1 0 
0 497
0 8
cfn=(216) _dl_sysdep_start_cleanup
calls=1 0 
0 1
0 6
cfn=(70)
calls=1 0 
0 8
0 2
cfn=(72)
calls=1 0 
0 1
0 1
cfn=(218)
calls=1 0 
0 15
0 14
cfn=(170)
calls=3 0 
0 60
0 20
cfn=(146)
calls=1 0 
0 8955
0 12
cfn=(10)
calls=1 0 
0 108
0 8
cfn=(34)
calls=1 0 
0 99
0 11
cfn=(58)
calls=1 0 
0 945
0 3
cfn=(58)
calls=1 0 
0 7
0 15
cfn=(74)
calls=1 0 
0 2573
0 14

fn=(32)
0 1238
cfn=(98)
calls=6 0 
0 36
0 627

fn=(52)
0 2810

fn=(80)
0 399

fn=(90)
0 387

fn=(134)
0 1304
cfn=(86)
calls=144 0 
0 9158
0 1148
cfn=(136) match_symbol
calls=12 0 
0 2265
0 105
cfn=(136)
calls=35 0 
0 6492
0 1504
cfn=(24)
calls=9 0 
0 408
0 9
0 3296

fn=(220)
0 5

fn=(18)
0 3146

fn=(58)
0 4289

fn=(72)
0 2

fn=(84)
0 2056
cfn=(86)
calls=126 0 
0 8044
0 521
cfn=(54)
calls=8 0 
0 184
0 22
cfn=(60)
calls=1 0 
0 244
0 11
cfn=(88)
calls=1 0 
0 446
0 139
cfn=(94)
calls=8 0 
0 19638
0 22
cfn=(10)
calls=7 0 
0 447
0 175
cfn=(110)
calls=7 0 
0 6146
0 148
cfn=(122)
calls=1 0 
0 8
0 80
cfn=(114)
calls=7 0 
0 8909
0 119
cfn=(88)
calls=7 0 
0 3739
0 35
cfn=(62)
calls=7 0 
0 1027
0 288
cfn=(122)
calls=1 0 
0 8
0 874
cfn=(42)
calls=76 0 
0 1897
0 228

fn=(88)
0 874
cfn=(90)
calls=46 0 
0 382
0 210
cfn=(92)
calls=8 0 
0 40
0 112
cfn=(18)
calls=8 0 
0 695
0 72
cfn=(18)
calls=8 0 
0 640
0 916
cfn=(18)
calls=4 0 
0 292
0 32
cfn=(18)
calls=8 0 
0 632
0 538
cfn=(18)
calls=3 0 
0 264
0 6

fn=(106)
0 1830
cfn=(54)
calls=20 0 
0 556
0 180
cfn=(76)
calls=20 0 
0 54543
0 334
cfn=(28)
calls=8 0 
0 272
0 8
0 80
cfn=(34)
calls=8 0 
0 211
0 40
cfn=(34)
calls=8 0 
0 211
0 313
cfn=(28)
calls=1 0 
0 34
0 1
0 157
cfn=(68)
calls=1 0 
0 26
0 1132
cfn=(68)
calls=8 0 
0 120
0 44
cfn=(124)
calls=2 0 
0 130
0 61
cfn=(124)
calls=2 0 
0 90
0 637
cfn=(34)
calls=1 0 
0 61
0 4

fn=(108)
0 280
cfn=(84)
calls=20 0 
0 52983
0 60

fn=(136)
0 4399
cfn=(42)
calls=47 0 
0 3888
0 470

fn=(140)
0 141

fn=(180)
0 1364
cfn=(182) _dl_fixup
calls=124 0 
0 143308
0 1240

fn=(182)
0 6736
cfn=(148)
calls=117 0 
0 124664
0 77
cfn=(148)
calls=7 0 
0 8245
0 3526
cob=(4)
cfi=(4)
cfn=(210)
calls=1 0 
0 16
cob=(3)
cfi=(3)
cfn=(1670) bcmp
calls=1 0 
0 8
cob=(3)
cfi=(3)
cfn=(1558) memcpy@@GLIBC_2.14
calls=1 0 
0 7
cob=(3)
cfi=(3)
cfn=(1286) strcmp
calls=1 0 
0 9
cob=(3)
cfi=(3)
cfn=(514) __sched_cpucount
calls=1 0 
0 10
0 10

fn=(216)
0 1

fn=(224)
0 139
cfn=(226)
calls=9 0 
0 101676
0 20
cfn=(226)
calls=1 0 
0 7366
0 2

fn=(428) _dl_find_dso_for_object
0 81

ob=(11)
fl=(14) /home/mojko/Documents/UNIVERSITY/HPC_2/Project_3/src/pse_solver.cpp
fn=(1632) pse_solver::pse_solver()
6 1

fn=(1918) pse_solver::solve(double*, param&) [clone ._omp_fn.0]
40 48
+2 12
+7 4
fi=(32) /home/mojko/Documents/UNIVERSITY/HPC_2/Project_3/include/param.h
-38 12
cob=(8)
cfi=(8)
cfn=(1924) GOMP_single_start
calls=4 -11 
* 40
cob=(1)
cfi=(1)
cfn=(180)
calls=1 -11 
* 1184
* 8
* 128
cob=(8)
cfi=(8)
cfn=(1924)
calls=128 -11 
* 1280
* 128
* 396
cob=(8)
cfi=(8)
cfn=(1956) GOMP_barrier
calls=132 -11 
* 5642837
cob=(1)
cfi=(1)
cfn=(180)
calls=1 -11 
* 1120
* 136
* 132
cob=(8)
cfi=(8)
cfn=(1924)
calls=132 -11 
* 1320
* 132
* 528
cob=(8)
cfi=(8)
cfn=(1956)
calls=132 -11 
* 1501077
* 132
fe=(14)
+74 528
fi=(32)
-74 4620
cob=(9)
cfi=(9)
cfn=(1932) std::basic_string<char, std::char_traits<char>, std::allocator<char> >::basic_string(std::string const&)
calls=132 -11 
* 2376
* 132
fe=(14)
+87 660
cfi=(26) /home/mojko/Documents/UNIVERSITY/HPC_2/Project_3/src/pse_solver_scalar.cpp
cfn=(2044) pse_solver::step_scalar_imp(double*, double*, param)
calls=132 -9 
* 17103416539
* 258
cfi=(29) /usr/include/c++/4.8/bits/basic_string.h
cfn=(2046) param::~param()
calls=129 293 
* 1677
* 258
cob=(8)
cfi=(8)
cfn=(1924)
calls=129 -98 
* 1290
* 129
* 516
cob=(8)
cfi=(8)
cfn=(1956)
calls=129 -98 
* 21546908
* 129
* 128
cob=(8)
cfi=(8)
cfn=(1924)
calls=128 -98 
* 1280
* 128
* 384
cob=(8)
cfi=(8)
cfn=(1956)
calls=128 -98 
* 2475808
* 128
-56 384
+63 66
+13 32
-4 32
+1 32
+3 32
-2 32
-1 96
-37 66
-30 99
+1 99
cob=(9)
cfi=(9)
cfn=(1932)
calls=33 -49 
* 594
cob=(1)
cfi=(1)
cfn=(180)
calls=1 -49 
* 885
* 37
* 165
cfi=(24) /home/mojko/Documents/UNIVERSITY/HPC_2/Project_3/src/helper.cpp
cfn=(1934) print_grid_to_file(std::string, double*, int, double)
calls=33 -42 
* 133123259
fi=(29)
293 33
539 33
240 66
fe=(14)
50 330
cfi=(24)
cfn=(2030) copy_2d(double*, double*, int, int)
calls=33 -13 
* 219120
+1 66
fi=(33) /usr/include/c++/4.8/ext/atomicity.h
+30 33
fi=(29)
246 33
fi=(33)
81 66
-32 66
fi=(29)
245 66
fe=(14)

fn=(1722) pse_solver::solve(double*, param&)
9 2
+10 1
-10 8
+2 1
+1 1
+5 1
-2 1
+1 1
+3 1
-5 1
+5 1
-4 1
+2 1
-1 1
-2 1
+5 2
cob=(3)
cfi=(3)
cfn=(1440)
calls=1 -19 
* 2418
* 1
+7 4
-4 1
+4 1
+2 3
+5 4
cob=(3)
cfi=(3)
cfn=(1482) printf
calls=1 -33 
* 2280
* 1
+5 2
cob=(3)
cfi=(3)
cfn=(1446) puts
calls=1 -38 
* 477
* 1
+2 18
cob=(8)
cfi=(8)
cfn=(1728) GOMP_parallel_start
calls=1 -40 
* 18455
cob=(1)
cfi=(1)
cfn=(180)
calls=1 -40 
* 1200
* 5
* 2
cfn=(1918)
calls=1 * 
* 4308566643

fn=(888) _GLOBAL__sub_I__ZN10pse_solverC2Ev
124 1
fi=(15) /usr/include/c++/4.8/iostream
-50 2
cob=(9)
cfi=(9)
cfn=(894) std::ios_base::Init::Init()
calls=1 -74 
* 107467
cob=(1)
cfi=(1)
cfn=(180)
calls=1 -74 
* 1037
* 5
* 3
fe=(14)
+50 1
fi=(15)
-50 1
cob=(3)
cfi=(3)
cfn=(690) __cxa_atexit
calls=1 -74 
* 66
cob=(1)
cfi=(1)
cfn=(180)
calls=1 -74 
* 1537
* 5
fe=(14)

fl=(18) /home/mojko/Documents/UNIVERSITY/HPC_2/Project_3/src/analytic.cpp
fn=(1384) _GLOBAL__sub_I__ZN8analytic8evaluateEdPddiiddd
74 1
fi=(15)
* 2
cob=(9)
cfi=(9)
cfn=(894)
calls=1 -74 
* 22
* 1
* 3
fe=(18)
* 1
fi=(15)
* 1
cob=(3)
cfi=(3)
cfn=(690)
calls=1 -74 
* 66
* 1
fe=(18)

fl=(17) /home/mojko/Documents/UNIVERSITY/HPC_2/Project_3/src/adi_solver_int.cpp
fn=(1380) _GLOBAL__sub_I__ZN10adi_solver18solve_vector_ispc2EPdR5param
324 1
fi=(15)
74 2
cob=(9)
cfi=(9)
cfn=(894)
calls=1 -74 
* 22
* 1
* 3
fe=(17)
324 1
fi=(15)
74 1
cob=(3)
cfi=(3)
cfn=(690)
calls=1 -74 
* 66
* 1
fe=(17)

fl=(28) /home/mojko/Documents/UNIVERSITY/HPC_2/Project_3/src/main.cpp
fn=(1424) _GLOBAL__sub_I_main
124 1
fi=(15)
-50 2
cob=(9)
cfi=(9)
cfn=(894)
calls=1 -74 
* 22
* 1
* 3
fe=(28)
+50 1
fi=(15)
-50 1
cob=(3)
cfi=(3)
cfn=(690)
calls=1 -74 
* 66
* 1
fe=(28)

fn=(1434) main
41 1
+3 2
-3 8
+3 1
cob=(3)
cfi=(3)
cfn=(1440)
calls=1 -44 
* 2418
cob=(1)
cfi=(1)
cfn=(180)
calls=1 -44 
* 1419
* 5
+5 1
-5 1
+5 1
cob=(3)
cfi=(3)
cfn=(1446)
calls=1 -49 
* 2161
cob=(1)
cfi=(1)
cfn=(180)
calls=1 -49 
* 1381
* 5
+5 7
cob=(3)
cfi=(3)
cfn=(1482)
calls=1 -54 
* 4448
cob=(1)
cfi=(1)
cfn=(180)
calls=1 -54 
* 1412
* 5
+1 4
cob=(3)
cfi=(3)
cfn=(1482)
calls=1 -55 
* 973
* 1
+2 3
cob=(3)
cfi=(3)
cfn=(1440)
calls=1 -57 
* 271
* 1
+1 2
-1 1
+1 1
cob=(3)
cfi=(3)
cfn=(1440)
calls=1 -58 
* 271
* 1
+1 2
-1 1
+1 1
cob=(3)
cfi=(3)
cfn=(1440)
calls=1 -59 
* 271
* 1
+2 1
-2 1
+2 1
cfi=(16) /home/mojko/Documents/UNIVERSITY/HPC_2/Project_3/src/param.cpp
cfn=(1516) param::param()
calls=1 -54 
* 19
* 2
cfi=(16)
cfn=(1516)
calls=1 -54 
* 19
* 2
cfi=(16)
cfn=(1516)
calls=1 -54 
* 19
+3 6
cob=(9)
cfi=(9)
cfn=(1522) std::basic_string<char, std::char_traits<char>, std::allocator<char> >::basic_string(char const*, std::allocator<char> const&)
calls=1 -64 
* 5743
cob=(1)
cfi=(1)
cfn=(180)
calls=1 -64 
* 953
* 5
* 15
cfi=(16)
cfn=(1568) param::set_params(double, double, double, int, int, double, double, double, int, double*, int, std::string, int)
calls=1 -50 
* 6233
fi=(29)
539 2
fe=(28)
67 1
fi=(29)
539 2
cob=(9)
cfi=(9)
cfn=(1628) std::string::_Rep::_M_dispose(std::allocator<char> const&)
calls=1 0 
* 9
cob=(1)
cfi=(1)
cfn=(180)
calls=1 0 
* 1133
* 5
fe=(28)
67 4
cob=(9)
cfi=(9)
cfn=(1522)
calls=1 -67 
* 345
* 1
* 15
cfi=(16)
cfn=(1568)
calls=1 -53 
* 2434
fi=(29)
539 4
cob=(9)
cfi=(9)
cfn=(1628)
calls=1 0 
* 9
* 1
fe=(28)
70 4
cob=(9)
cfi=(9)
cfn=(1522)
calls=1 -70 
* 328
* 1
* 16
cfi=(16)
cfn=(1568)
calls=1 -56 
* 2434
fi=(29)
539 4
cob=(9)
cfi=(9)
cfn=(1628)
calls=1 0 
* 9
* 1
fe=(28)
73 2
cfi=(20) /home/mojko/Documents/UNIVERSITY/HPC_2/Project_3/src/adi_solver.cpp
cfn=(1630) adi_solver::adi_solver()
calls=1 -65 
* 1
+2 2
cfi=(14)
cfn=(1632)
calls=1 -69 
* 1
+4 8
cfi=(24)
cfn=(1634) set_bc(double*, double, double, double, double, int, int)
calls=1 +22 
* 13439
+5 8
cfi=(24)
cfn=(1634)
calls=1 +17 
* 1059
+1 8
cfi=(24)
cfn=(1706) set_ic(double*, double, double, double, double, int, int)
calls=1 +43 
* 305562
+1 4
cfi=(14)
cfn=(1722)
calls=1 -77 
* 4308591541

fl=(20)
fn=(1392) _GLOBAL__sub_I__ZN10adi_solverC2Ev
10 1
fi=(15)
+64 2
cob=(9)
cfi=(9)
cfn=(894)
calls=1 -74 
* 22
* 1
* 3
fe=(20)
-64 1
fi=(15)
+64 1
cob=(3)
cfi=(3)
cfn=(690)
calls=1 -74 
* 66
* 1
fe=(20)

fn=(1630)
8 1

fl=(27) /home/mojko/Documents/UNIVERSITY/HPC_2/Project_3/src/ado_solver_mm.cpp
fn=(1420) _GLOBAL__sub_I__ZN10adi_solver16solve_vector_intEPdR5param
500 1
fi=(15)
74 2
cob=(9)
cfi=(9)
cfn=(894)
calls=1 -74 
* 22
* 1
* 3
fe=(27)
500 1
fi=(15)
74 1
cob=(3)
cfi=(3)
cfn=(690)
calls=1 -74 
* 66
* 1
fe=(27)

fl=(12) /home/abuild/rpmbuild/BUILD/glibc-2.19/csu/elf-init.c
fn=(874) __libc_csu_init
68 7
+18 1
-18 1
+18 1
-18 1
+18 1
+1 1
-1 1
-18 1
+15 1
cob=(2)
cfi=(2)
cfn=(876) 0x0000000000401170
calls=1 -83 
* 6
+4 3
+1 4
cfi=(13) ???
cfn=(880) 0x0000000000401dc0
calls=1 -88 
* 15
* 56
cfi=(28)
cfn=(1424)
calls=1 +36 
* 98
cfi=(27)
cfn=(1420)
calls=1 500 
* 98
cfi=(26)
cfn=(1416) _GLOBAL__sub_I__ZN10pse_solver11step_scalarEPdS0_5param
calls=1 421 
* 98
cfi=(25) /home/mojko/Documents/UNIVERSITY/HPC_2/Project_3/src/pse_solver_ispc.cpp
cfn=(1412) _GLOBAL__sub_I__ZN10pse_solver16step_vector_ispcEPdS0_5param
calls=1 641 
* 98
cfi=(24)
cfn=(1408) _GLOBAL__sub_I__Z18print_grid_to_fileSsPdid
calls=1 +86 
* 98
cfi=(23) /home/mojko/Documents/UNIVERSITY/HPC_2/Project_3/src/adi_solver_scalar.cpp
cfn=(1404) _GLOBAL__sub_I__ZN10adi_solver12solve_scalarEPdR5param
calls=1 682 
* 98
cfi=(22) /home/mojko/Documents/UNIVERSITY/HPC_2/Project_3/src/timing.cpp
cfn=(1400) _GLOBAL__sub_I__Z9timer_ticR15profile_timer_t
calls=1 -61 
* 98
cfi=(21) /home/mojko/Documents/UNIVERSITY/HPC_2/Project_3/src/adi_solver_ispc.cpp
cfn=(1396) _GLOBAL__sub_I__ZN10adi_solver17solve_vector_ispcEPdR5param
calls=1 264 
* 98
cfi=(20)
cfn=(1392)
calls=1 -78 
* 98
cfi=(19) /home/mojko/Documents/UNIVERSITY/HPC_2/Project_3/src/linear_algebra.cpp
cfn=(1388) _GLOBAL__sub_I__Z18spec_thomas_invertdddPdi
calls=1 -67 
* 98
cfi=(18)
cfn=(1384)
calls=1 -14 
* 98
cfi=(17)
cfn=(1380)
calls=1 324 
* 98
cfi=(16)
cfn=(1376) _GLOBAL__sub_I__ZN5paramC2Ev
calls=1 -25 
* 98
cfi=(14)
cfn=(888)
calls=1 +36 
* 110125
-1 45
+2 8

fl=(26)
fn=(1416)
421 1
fi=(15)
74 2
cob=(9)
cfi=(9)
cfn=(894)
calls=1 -74 
* 22
* 1
* 3
fe=(26)
421 1
fi=(15)
74 1
cob=(3)
cfi=(3)
cfn=(690)
calls=1 -74 
* 66
* 1
fe=(26)

fn=(2044)
89 924
+2 132
+1 132
+6 132
-9 132
+17 132
-17 132
+16 132
+2 132
-1 132
+7 132
-22 132
+22 132
-19 132
+19 132
-18 132
+11 132
+7 264
-19 264
+21 132
-8 264
+8 132
-9 396
+1 264
-1 132
+1 132
-1 132
+2 132
+1 264
-1 132
+7 264
+29 528
+9 4752
-64 1188
+29 660
+35 1971
-64 5913
+29 103378
+2 9458
-1 14187
+1 70923
-1 99291
+1 1167877
+2 37826
+2 37826
-2 37826
+4 75652
-4 37826
+2 37826
+2 37826
-6 264781
+2 264781
+2 264781
-2 264781
+4 529562
-4 264781
+2 264781
+2 2685637
-3 302607
+13 1210428
-9 302607
+2 302607
-2 302607
+2 302607
-2 9683408
+2 9683408
-2 9683408
+2 81083125
+38 5990448
-19 1497612
+19 47923584
-19 47923584
+5 68515569
+7 22838523
+7 22838523
-38 22838523
+38 45677046
-38 22838523
+38 45677046
-7 22838523
+2 45677046
+1 22838523
+1 45677046
+1 45677046
+2 22838523
-38 22838523
+31 1872075
+7 1872075
-38 1872075
+38 3744150
-38 1872075
+38 3744150
-7 1872075
+2 3744150
+1 1872075
+1 3744150
+1 3744150
+2 1872075
-38 1872075
-3 49930070
+44 29958042
-44 10591226
-6 605212
-2 283687
-2 15760
+66 13396
+2 788
-1 2364
+1 5507
-1 14157
+1 142394
+2 5507
+2 5507
-2 5507
+4 11014
-2 5507
+2 5507
-6 258793
+2 258793
+2 258793
-2 258793
+4 517586
-2 258793
+2 1315993
-3 528600
+3 1321500
+1 264300
+2 264300
-2 264300
+2 264300
-2 8457591
+2 8457591
-2 8457591
+2 70730094
+38 4877064
-19 1219266
+19 39016450
-19 39016450
+5 55781211
+7 18593737
+7 18593737
-38 18593737
+38 37187474
-38 18593737
+38 37187474
-7 18593737
+2 37187474
+1 18593737
+1 37187474
+1 37187474
+2 18593737
-38 18593737
+31 1524120
+7 1524120
-38 1524120
+38 3048240
-38 1524120
+38 3048240
-7 1524120
+2 3048240
+1 1524120
+1 3048240
+1 3048240
+2 1524120
-38 1524120
-3 43609445
+44 34887556
-44 9514783
-6 534101
-2 42465
-67 4446
240 774
+35 4257
-34 129
+1 129
-1 129
+1 645
+16 1935
-16 129
+2 387
+2 129
+2 258
-2 129
+2 129
-4 18189
+2 6063
+2 12126
-2 6063
+2 24639
-3 18576
+3 12384
+10 12384
-10 12384
+1 6192
+2 6192
-2 6192
+2 6192
-2 198144
+2 198144
-2 198144
+2 1609920
+38 650160
-19 185760
+19 5944320
-19 5944320
+5 8498520
+7 2832840
+7 2832840
-38 2832840
+38 5665680
-38 2832840
+38 5665680
-7 2832840
+2 5665680
+1 2832840
+1 5665680
+1 5665680
+2 2832840
-38 2832840
+31 232200
+7 232200
-38 232200
+38 464400
-38 232200
+38 464400
-7 232200
+2 464400
+1 232200
+1 464400
+1 464400
+2 232200
-38 232200
-3 1021680
+44 817344
-44 222912
-6 12642
-2 774
+60 18475450
129 3801600
+19 1520640
-19 48660480
+19 48660480
+5 69569280
+7 23189760
+7 23189760
-38 23189760
+38 46379520
-38 23189760
+38 46379520
-7 23189760
+2 46379520
+1 23189760
+1 46379520
+1 46379520
+2 23189760
-38 23189760
+31 1900800
+7 1900800
-38 1900800
+38 3801600
-38 1900800
+38 3801600
-7 1900800
+2 3801600
+1 1900800
+1 3801600
+1 3801600
+2 1900800
-38 19614898
+5 16953778
+1 517092554
+1 21196629
+13 42393258
+11 21196629
+7 21196629
-38 21196629
+38 42393258
-38 21196629
+38 21196629
-7 21196629
+2 42393258
+1 21196629
+1 42393258
+1 42393258
+2 21196629
-38 21196629
+31 258540687
+7 258540687
-38 258540687
+38 517081374
-38 258540687
+38 258540687
-7 258540687
+2 517081374
+1 258540687
+1 517081374
+1 517081374
+2 258540687
-38 258540687
+6 1118949268
+13 42382080
+4 63573120
-16 42382080
-1 237349647
-1 474699294
-5 222912
251 222912
+5 222912
+2 278640
+13 557280
+11 278640
+7 835920
-38 835920
+31 278640
+2 557280
+1 278640
+1 557280
+1 557280
+2 278640
-38 278640
+31 3399408
+7 10198224
-38 10198224
+31 3399408
+2 6798816
+1 3399408
+1 6798816
+1 6798816
+2 3399408
-38 3399408
+6 21511008
+17 835920
-16 557280
-1 3120768
-1 6241536
-5 16224516
-58 3548160
+19 1419264
-19 45416448
+19 45416448
+5 64931328
+7 21643776
+7 21643776
-38 21643776
+38 43287552
-38 21643776
+38 43287552
-7 21643776
+2 43287552
+1 21643776
+1 43287552
+1 43287552
+2 21643776
-38 21643776
+31 1774080
+7 1774080
-38 1774080
+38 3548160
-38 1774080
+38 3548160
-7 1774080
+2 3548160
+1 1774080
+1 3548160
+1 3548160
+2 1774080
-38 17288964
+5 14805252
+2 18509406
+13 18509406
+11 18509406
-31 18509406
+38 55528218
-38 18509406
+38 18509406
-7 18509406
+2 37018812
+1 18509406
+1 37018812
+1 37018812
+2 18509406
-38 18509406
+31 225777243
-31 225777243
+38 677331729
-38 225777243
+38 225777243
-7 225777243
+2 451554486
+1 225777243
+1 451554486
+1 451554486
+2 225777243
-38 225777243
+6 1935779618
+1 37010460
-1 207272013
-1 414544026

fl=(16)
fn=(1516)
7 3
fi=(34) /home/mojko/Documents/UNIVERSITY/HPC_2/Project_3/include/timing.h
+4 3
fe=(16)
-4 3
fi=(34)
+4 3
fe=(16)
-4 33
fi=(29)
275 3
fe=(16)
7 6
fi=(29)
275 3
fe=(16)

fn=(1376)
63 1
fi=(15)
+11 2
cob=(9)
cfi=(9)
cfn=(894)
calls=1 -74 
* 22
* 1
* 3
fe=(16)
-11 1
fi=(15)
+11 1
cob=(3)
cfi=(3)
cfn=(690)
calls=1 -74 
* 66
* 1
fe=(16)

fn=(1568)
14 21
+19 3
-19 3
+3 3
+1 3
+3 3
-7 3
+9 3
-4 3
+5 3
+2 3
+1 3
-6 3
fi=(29)
547 3
fe=(16)
29 3
+3 3
-2 3
fi=(29)
547 3
cob=(9)
cfi=(9)
cfn=(1574) std::string::assign(std::string const&)
calls=3 0 
* 81
cob=(1)
cfi=(1)
cfn=(180)
calls=1 0 
* 962
* 7
fe=(16)
35 6
cob=(3)
cfi=(3)
cfn=(1446)
calls=3 -35 
* 1317
* 3
+3 6
+1 9
cob=(3)
cfi=(3)
cfn=(1580) fopen@@GLIBC_2.2.5
calls=3 -39 
* 1626
cob=(1)
cfi=(1)
cfn=(180)
calls=1 -39 
* 1389
* 7
+1 6
+2 6
cob=(3)
cfi=(3)
cfn=(1608) fclose@@GLIBC_2.2.5
calls=3 -42 
* 1245
cob=(1)
cfi=(1)
cfn=(180)
calls=1 -42 
* 1436
* 7
+2 9
cob=(3)
cfi=(3)
cfn=(1580)
calls=3 -44 
* 1629
* 3
+1 6
cob=(3)
cfi=(3)
cfn=(1608)
calls=3 -45 
* 1245
* 3
+3 3
+2 18

fl=(11)
fn=(864)
67 1
+16 1
+6 1
+3 1
+2 1
+3 1
+4 1
+14 1
+1 1
+2 1
+4 1
cob=(3)
cfi=(3)
cfn=(872) (below main)
calls=1 0 
* 4309058202
cob=(1)
cfi=(1)
cfn=(180)
calls=1 0 
* 1588
* 5

fl=(13)
fn=(880)
0 15

fl=(25)
fn=(1412)
641 1
fi=(15)
74 2
cob=(9)
cfi=(9)
cfn=(894)
calls=1 -74 
* 22
* 1
* 3
fe=(25)
641 1
fi=(15)
74 1
cob=(3)
cfi=(3)
cfn=(690)
calls=1 -74 
* 66
* 1
fe=(25)

fl=(24)
fn=(1634)
101 2
+1 4
-1 6
+13 18
+1 2
+1 4
-2 102
+1 98
+1 196
-2 196
+5 38
+1 4
-1 8
+1 4
+1 10
-2 22
+1 44
+1 114
-1 4
+1 2
-2 8
+1 2
-1 2
+1 2
+1 2
-2 2
fi=(30) /usr/include/c++/4.8/ostream
535 8
cob=(9)
cfi=(9)
cfn=(1642) std::basic_ostream<char, std::char_traits<char> >& std::__ostream_insert<char, std::char_traits<char> >(std::basic_ostream<char, std::char_traits<char> >&, char const*, long)
calls=2 0 
* 2669
cob=(1)
cfi=(1)
cfn=(180)
calls=1 0 
* 1860
* 6
+30 6
fi=(35) /usr/include/c++/4.8/bits/basic_ios.h
48 4
fi=(31) /usr/include/c++/4.8/bits/locale_facets.h
867 4
+1 1
fi=(30)
565 3
cob=(9)
cfi=(9)
cfn=(1680) std::ostream::put(char)
calls=1 0 
* 244
* 1
* 3
cob=(9)
cfi=(9)
cfn=(1680)
calls=1 0 
* 1645
cob=(1)
cfi=(1)
cfn=(180)
calls=1 0 
* 848
* 5
fe=(24)
126 2
fi=(30)
587 2
fe=(24)
126 4
fi=(30)
587 2
cob=(9)
cfi=(9)
cfn=(1694) std::ostream::flush()
calls=2 0 
* 1549
cob=(1)
cfi=(1)
cfn=(180)
calls=1 0 
* 902
* 6
* 4
fi=(31)
869 2
cob=(9)
cfi=(9)
cfn=(1664) std::ctype<char>::_M_widen_init() const
calls=1 0 
* 2625
cob=(1)
cfi=(1)
cfn=(180)
calls=1 0 
* 1185
* 5
+1 4
cob=(9)
cfi=(9)
cfn=(1674) std::ctype<char>::do_widen(char) const
calls=1 0 
* 2
* 1
fe=(24)

fn=(1934)
7 198
+4 33
-4 33
+1 33
-1 66
+4 33
-4 33
+4 33
cob=(3)
cfi=(3)
cfn=(1580)
calls=33 -11 
* 30270
* 33
+1 33
-1 33
+1 66
+8 198
cob=(3)
cfi=(3)
cfn=(2000) fprintf
calls=33 -20 
* 84247
cob=(1)
cfi=(1)
cfn=(180)
calls=1 -20 
* 1425
* 37
+1 330
-14 99
+16 198
cob=(3)
cfi=(3)
cfn=(2000)
calls=33 -23 
* 47883
* 33
-2 1617
-14 4851
+16 9702
cob=(3)
cfi=(3)
cfn=(2000)
calls=1617 -23 
* 2346267
* 1617
* 485100
cob=(3)
cfi=(3)
cfn=(2000)
calls=80850 -23 
* 129760676
* 80850
-1 165000
+3 3300
-4 1650
+4 1650
cob=(3)
cfi=(3)
cfn=(2006) fputc
calls=1650 -25 
* 67650
cob=(1)
cfi=(1)
cfn=(180)
calls=1 -25 
* 1419
* 1654
* 1650
-4 3300
+10 33
-2 33
+2 198
-2 33
cob=(3)
cfi=(3)
cfn=(1608)
calls=33 -29 
* 19629
* 33

fn=(1408)
174 1
fi=(15)
74 2
cob=(9)
cfi=(9)
cfn=(894)
calls=1 -74 
* 22
* 1
* 3
fe=(24)
174 1
fi=(15)
74 1
cob=(3)
cfi=(3)
cfn=(690)
calls=1 -74 
* 66
* 1
fe=(24)

fn=(2030)
37 66
-3 99
+5 33
-5 363
+5 33
-5 66
+5 33
-1 66
+1 66
-1 66
+1 66
-2 6666
+1 3300
+1 163350
-1 1650
+1 4950
-1 1650
+1 1650
-1 1650
+1 4950
-1 1650
-1 9900
+1 16500
-1 33
+6 264

fn=(1706)
128 2
+1 1
-1 6
+11 1
-11 4
+11 9
+1 432
cob=(4)
cfi=(4)
cfn=(1712)
calls=48 0 
* 5625
cob=(1)
cfi=(1)
cfn=(180)
calls=1 0 
* 881
* 52
* 96
-4 48
+4 96
-3 96
+4 96
cob=(4)
cfi=(4)
cfn=(1712)
calls=48 0 
* 2928
* 48
-5 2256
+4 4512
-3 4512
+4 4512
cob=(4)
cfi=(4)
cfn=(1712)
calls=2256 0 
* 267072
* 2256
* 4608
-1 4608
-1 192
fi=(30)
535 4
cob=(9)
cfi=(9)
cfn=(1642)
calls=1 0 
* 271
* 1
+30 3
fi=(35)
48 2
fi=(31)
867 2
+1 1
fi=(30)
565 3
cob=(9)
cfi=(9)
cfn=(1680)
calls=1 0 
* 244
* 1
fe=(24)
147 1
fi=(30)
587 1
fe=(24)
147 6
fi=(30)
587 1
cob=(9)
cfi=(9)
cfn=(1694)
calls=1 0 
* 71
* 1
fe=(24)

fl=(19)
fn=(1388)
21 1
fi=(15)
+53 2
cob=(9)
cfi=(9)
cfn=(894)
calls=1 -74 
* 22
* 1
* 3
fe=(19)
-53 1
fi=(15)
+53 1
cob=(3)
cfi=(3)
cfn=(690)
calls=1 -74 
* 66
* 1
fe=(19)

fl=(23)
fn=(1404)
682 1
fi=(15)
74 2
cob=(9)
cfi=(9)
cfn=(894)
calls=1 -74 
* 22
* 1
* 3
fe=(23)
682 1
fi=(15)
74 1
cob=(3)
cfi=(3)
cfn=(690)
calls=1 -74 
* 66
* 1
fe=(23)

fl=(29)
fn=(2046)
293 129
539 129
240 258
fi=(16)
12 129
fi=(33)
+69 129
fe=(29)
246 129
fi=(33)
81 258
-32 258
fe=(29)
245 258

fl=(22)
fn=(1400)
27 1
fi=(15)
+47 2
cob=(9)
cfi=(9)
cfn=(894)
calls=1 -74 
* 22
* 1
* 3
fe=(22)
-47 1
fi=(15)
+47 1
cob=(3)
cfi=(3)
cfn=(690)
calls=1 -74 
* 66
* 1
fe=(22)

fl=(21)
fn=(1396)
264 1
fi=(15)
74 2
cob=(9)
cfi=(9)
cfn=(894)
calls=1 -74 
* 22
* 1
* 3
fe=(21)
264 1
fi=(15)
74 1
cob=(3)
cfi=(3)
cfn=(690)
calls=1 -74 
* 66
* 1
fe=(21)

ob=(3)
fl=(3)
fn=(252) __libc_dl_error_tsd
0 3

fn=(282) rindex
0 54

fn=(288) handle_intel
0 44
cfn=(290) intel_check_word
calls=2 0 
0 636
0 14
cfn=(290)
calls=2 0 
0 214
0 40

fn=(448) brk
0 39

fn=(466) _int_free
0 4260
cfn=(468) systrim.isra.1
calls=1 0 
0 165
0 161

fn=(950) newlocale
0 40

fn=(1036) _dl_mcount_wrapper_check
0 512

fn=(1052) __GI_memcmp
0 1012

fn=(1448) _IO_file_xsputn@@GLIBC_2.2.5
0 3139500
cfn=(1490) __GI_mempcpy
calls=82585 0 
0 1486686
0 1818270
cfn=(1450) _IO_file_overflow@@GLIBC_2.2.5
calls=103 0 
0 11661
0 1945
cfn=(1466) _IO_default_xsputn
calls=100 0 
0 6327
0 1583

fn=(1460) mmap
0 258

fn=(1486) strchrnul
0 3302892

fn=(1500) isinf
0 1072968

fn=(1560) __memcpy_sse2_unaligned
0 50

fn=(1598) __open_nocancel
0 30

fn=(1618) _IO_file_finish@@GLIBC_2.2.5
0 312
cfn=(1620) _IO_default_finish
calls=39 0 
0 936

fn=(1702) fflush
0 69
cfn=(1704) _IO_file_sync@@GLIBC_2.2.5
calls=3 0 
0 39
0 54

fn=(1944) __libc_enable_asynccancel
0 2541

fn=(1974) __libc_disable_asynccancel
0 2772

fn=(284) __ctype_init
0 64

fn=(290)
0 850

fn=(422) _dl_addr
0 14
cob=(5)
cfi=(5)
cfn=(424) pthread_mutex_lock
calls=1 0 
0 33
0 2
cob=(1)
cfi=(1)
cfn=(428)
calls=1 0 
0 81
0 1
0 56016
cob=(5)
cfi=(5)
cfn=(430) pthread_mutex_unlock
calls=1 0 
0 34
0 13

fn=(446) sbrk
0 69
cfn=(448)
calls=2 0 
0 26
0 31
cfn=(448)
calls=1 0 
0 13
0 10

fn=(460) closedir
0 5
cfn=(464) free
calls=1 0 
0 287
0 1
0 3
cfn=(470) __close_nocancel
calls=1 0 
0 5

fn=(468)
0 29
cfn=(444) __default_morecore
calls=1 0 
0 26
0 14
cfn=(444)
calls=1 0 
0 49
0 9
cfn=(444)
calls=1 0 
0 26
0 12

fn=(504) memset
0 4690

fn=(690)
0 160
cfn=(692) __new_exitfn
calls=20 0 
0 874
0 280

fn=(692)
0 874

fn=(1286)
0 9

fn=(1452) _IO_doallocbuf
0 374
cfn=(1454) _IO_file_doallocate
calls=34 0 
0 2765
0 68

fn=(1462) _IO_setb
0 1684
cfn=(1940) munmap
calls=33 0 
0 165
0 132

fn=(1496) __printf_fp
0 3383976
cfn=(1498) isnan
calls=82536 0 
0 577752
0 330144
cfn=(1500)
calls=82536 0 
0 1072968
0 1568184
cfn=(1502) __mpn_extract_double
calls=82536 0 
0 1733256
0 6178834
cfn=(1512) hack_digit.13672
calls=6470 0 
0 291150
0 3190157
cfn=(1512)
calls=330209 0 
0 16887898
0 1667913
cfn=(1512)
calls=82536 0 
0 4322648
0 4215756
cfn=(1504) __mpn_lshift
calls=6470 0 
0 97050
0 1530938
cfn=(352) strlen
calls=82536 0 
0 1320576
0 7428890
cfn=(1490)
calls=82536 0 
0 1485648
0 5140024
cfn=(1504)
calls=76066 0 
0 1140990
0 4823175
cfn=(1510) __mpn_rshift
calls=11911 0 
0 202487
0 5727550
cfn=(1506) __mpn_mul
calls=15769 0 
0 1103830
0 1757685
cfn=(1508) __mpn_mul_1
calls=64551 0 
0 2065632
0 6983743
cfn=(1468) __overflow
calls=83 0 
0 12064
0 258635
cfn=(1510)
calls=64551 0 
0 1097367
0 371714

fn=(1670)
0 8

fn=(1688) putc
0 114
cfn=(1468)
calls=3 0 
0 414
0 6

fn=(160) _dl_vdso_vsym
0 28

fn=(406) opendir
0 3
cfn=(408) __opendirat
calls=1 0 
0 58080

fn=(408)
0 6
cfn=(410) __openat_nocancel
calls=1 0 
0 8
0 8
cfn=(412) __alloc_dir
calls=1 0 
0 58058

fn=(458) ____strtoul_l_internal
0 502

fn=(1034) btowc
0 6912
cfn=(1036)
calls=128 0 
0 512
0 384
cfn=(1038) __gconv_btwoc_ascii
calls=128 0 
0 640
0 768

fn=(1050) wctype_l
0 110
cfn=(352)
calls=10 0 
0 160
0 328
cfn=(352)
calls=48 0 
0 768
0 20
cfn=(352)
calls=10 0 
0 160
0 370
cfn=(1052)
calls=49 0 
0 1012
0 198

fn=(1494) read_int
0 1980072

fn=(1498)
0 577752

fn=(1588) _IO_file_init@@GLIBC_2.2.5
0 312
cfn=(1590) _IO_link_in
calls=39 0 
0 4578
0 195

fn=(1590)
0 3375
cob=(5)
cfi=(5)
cfn=(1514) _pthread_cleanup_pop_restore
calls=39 0 
0 312
0 429
cob=(5)
cfi=(5)
cfn=(1488) _pthread_cleanup_push_defer
calls=39 0 
0 546
0 345

fn=(1592) _IO_file_fopen@@GLIBC_2.2.5
0 1473
cfn=(1594) _IO_file_open
calls=39 0 
0 11487
0 234
cfn=(1600) __GI_strstr
calls=39 0 
0 975
0 612

fn=(1612) _IO_file_close_it@@GLIBC_2.2.5
0 585
cfn=(1614) _IO_unsave_markers
calls=39 0 
0 195
0 390
cfn=(1462)
calls=39 0 
0 1335
0 312
cfn=(1610) _IO_un_link
calls=39 0 
0 390
0 507
cfn=(1616) _IO_file_close
calls=39 0 
0 273
0 309
cfn=(1464) _IO_do_write@@GLIBC_2.2.5
calls=33 0 
0 4059
0 66

fn=(1616)
0 78
cfn=(470)
calls=39 0 
0 195

fn=(1802) realloc
0 22
cfn=(1804) realloc_hook_ini
calls=1 0 
0 230

fn=(1803) realloc'2
0 26
cfn=(416) malloc
calls=1 0 
0 196

fn=(1938) new_heap
0 57
cfn=(1460)
calls=1 0 
0 6
0 18
cfn=(1858) mprotect
calls=3 0 
0 15
0 41
cfn=(1460)
calls=2 0 
0 12
0 19
cfn=(1940)
calls=1 0 
0 5
0 3
cfn=(1940)
calls=1 0 
0 5
0 5
cfn=(1940)
calls=1 0 
0 5
0 2

fn=(1940)
0 180

fn=(154)
0 3
cfn=(156) __init_cpu_features
calls=1 0 
0 78
0 4

fn=(164)
0 55
cfn=(160)
calls=1 0 
0 7
0 6

fn=(166)
0 13

fn=(184)
0 75

fn=(260) __register_atfork
0 50

fn=(278)
0 70
cfn=(160)
calls=1 0 
0 7
0 8
cfn=(160)
calls=1 0 
0 7
0 10
cfn=(280) __init_misc
calls=1 0 
0 78
0 1
cfn=(284)
calls=1 0 
0 16
0 14

fn=(420) ptmalloc_init.part.8
0 24
cfn=(434) __linkin_atfork
calls=1 0 
0 9
0 671
cfn=(422)
calls=1 0 
0 56194
0 22

fn=(434)
0 9

fn=(450) readdir
0 485
cfn=(452) __getdents
calls=2 0 
0 1568
0 210

fn=(452)
0 36
cfn=(352)
calls=1 0 
0 16
0 80
cfn=(352)
calls=16 0 
0 256
0 68
cfn=(454) __GI_memmove
calls=17 0 
0 1013
0 99

fn=(464)
0 620
cfn=(466)
calls=20 0 
0 2540
0 40
cfn=(466)
calls=20 0 
0 2046

fn=(514)
0 10

fn=(516) popcount_cpucount
0 13

fn=(576) getpagesize
0 20

fn=(1288) __strcmp_ssse3
0 192

fn=(1458) _fxstat
0 670

fn=(1464)
0 1294
cfn=(1470) new_do_write
calls=176 0 
0 19206
0 1056

fn=(1470)
0 2398
cfn=(1472) _IO_file_write@@GLIBC_2.2.5
calls=165 0 
0 12210
0 55
cfn=(1472)
calls=11 0 
0 473
0 4070

fn=(1476) __write_nocancel
0 55

fn=(1490)
0 2972334

fn=(1510)
0 1299854

fn=(1512)
0 8171281
cfn=(1508)
calls=406908 0 
0 8138160
0 5192255

fn=(1586) _IO_old_init
0 975

fn=(1858)
0 30

fn=(1980) _IO_file_seekoff@@GLIBC_2.2.5
0 792
cfn=(1456) _IO_file_stat
calls=33 0 
0 462
0 165
cfn=(1614)
calls=33 0 
0 165
0 165
cfn=(1982) _IO_file_seek
calls=33 0 
0 1320
0 1188
cfn=(1452)
calls=33 0 
0 3102
0 891

fn=(412)
0 13
cfn=(416)
calls=1 0 
0 58030
0 1
0 14

fn=(418) malloc_hook_ini
0 8
cfn=(420)
calls=1 0 
0 56920
0 3
cfn=(417) malloc'2
calls=1 0 
0 1086

fn=(436) _int_malloc
0 2196
cfn=(438) malloc_consolidate
calls=1 0 
0 666
0 4277
cfn=(442) sysmalloc
calls=4 0 
0 460
0 908

fn=(1038)
0 640

fn=(1440)
0 299
cfn=(436)
calls=8 0 
0 1271
0 319
cfn=(504)
calls=5 0 
0 4671

fn=(1456)
0 268
cfn=(1458)
calls=67 0 
0 670

fn=(1472)
0 3872
cfn=(1474) write
calls=176 0 
0 6347
0 2464

fn=(1502)
0 1733256

fn=(1584) _IO_no_init
0 390
cfn=(1586)
calls=39 0 
0 975
0 897

fn=(1600)
0 975

fn=(1614)
0 360

fn=(1656) fwrite
0 138
cfn=(1448)
calls=3 0 
0 384
0 51

fn=(1866) clone
0 81
cob=(5)
cfi=(5)
cfn=(1872) start_thread
calls=3 0 
0 12959408234

fn=(162)
0 6

fn=(280)
0 12
cfn=(282)
calls=1 0 
0 54
0 12

fn=(286)
0 11
cfn=(288)
calls=1 0 
0 430
0 4
cfn=(288)
calls=1 0 
0 518
0 129

fn=(440) malloc_init_state
0 2592

fn=(442)
0 205
cfn=(1460)
calls=3 0 
0 18
0 81
cfn=(444)
calls=1 0 
0 62
0 41
cfn=(444)
calls=1 0 
0 26
0 27

fn=(454)
0 1013

fn=(456) strtoul
0 20
cfn=(458)
calls=5 0 
0 502

fn=(1022) uselocale
0 42

fn=(1430) __sigsetjmp
0 72
cfn=(1432) __sigjmp_save
calls=4 0 
0 36

fn=(1504)
0 1238040

fn=(1596) open
0 78
cfn=(1598)
calls=6 0 
0 30
0 66
cfn=(1944)
calls=33 0 
0 363
0 198
cfn=(1974)
calls=33 0 
0 396
0 165

fn=(1610)
0 3570
cob=(5)
cfi=(5)
cfn=(1514)
calls=39 0 
0 312
0 429
cob=(5)
cfi=(5)
cfn=(1488)
calls=39 0 
0 546
0 423

fn=(1620)
0 546
cfn=(1610)
calls=39 0 
0 390

fn=(156)
0 78

fn=(246) getrlimit
0 5

fn=(258) __libc_pthread_init
0 8
cfn=(260)
calls=1 0 
0 50
0 385

fn=(438)
0 18
cfn=(440)
calls=1 0 
0 648

fn=(444)
0 10
cfn=(446)
calls=5 0 
0 149
0 30

fn=(1454)
0 374
cfn=(1456)
calls=34 0 
0 476
0 609
cfn=(1460)
calls=34 0 
0 204
0 238
cfn=(1462)
calls=34 0 
0 646
0 218

fn=(1482)
0 62
cfn=(1484) vfprintf
calls=2 0 
0 6670
0 11
cfn=(1484)
calls=1 0 
0 952
0 6

fn=(1492) _itoa_word
0 2358

fn=(1506)
0 378456
cfn=(1508)
calls=15769 0 
0 504608
0 220766

fn=(1582) __fopen_internal
0 390
cfn=(416)
calls=39 0 
0 9603
0 39
0 429
cfn=(1584)
calls=39 0 
0 2262
0 156
cfn=(1588)
calls=39 0 
0 5085
0 195
cfn=(1592)
calls=39 0 
0 14781
0 351
cfn=(1602) __fopen_maybe_mmap
calls=39 0 
0 156

fn=(1602)
0 156

fn=(1672) __memcmp_sse4_1
0 111

fn=(1704)
0 39

fn=(1982)
0 66
cfn=(1984) lseek
calls=33 0 
0 1254

fn=(1984)
0 132
cfn=(1944)
calls=33 0 
0 363
0 198
cfn=(1974)
calls=33 0 
0 396
0 165

fn=(158)
0 55
cfn=(160)
calls=1 0 
0 7
0 6

fn=(352)
0 1322566

fn=(402) sysconf
0 25
cfn=(404) get_nprocs_conf
calls=1 0 
0 61420
0 2

fn=(404)
0 7
cfn=(406)
calls=1 0 
0 58083
0 8
cfn=(450)
calls=1 0 
0 1593
0 26
cfn=(450)
calls=13 0 
0 518
0 152
cfn=(456)
calls=5 0 
0 522
0 41
cfn=(450)
calls=4 0 
0 152
0 10
cfn=(460)
calls=1 0 
0 301
0 7

fn=(470)
0 200

fn=(1432)
0 36

fn=(1450)
0 6132
cfn=(1464)
calls=8 0 
0 744
0 1199
cfn=(1464)
calls=103 0 
0 8635
0 2
cfn=(1452)
calls=1 0 
0 105
0 270
cfn=(1464)
calls=66 0 
0 8118
0 198

fn=(1466)
0 4232
cfn=(1450)
calls=35 0 
0 1120
0 975

fn=(1608)
0 1593
cfn=(1618)
calls=39 0 
0 1248
0 468
cfn=(464)
calls=39 0 
0 4959
0 39
0 351
cfn=(1612)
calls=39 0 
0 8421
0 156
cfn=(1610)
calls=39 0 
0 4500
0 384

fn=(1804)
0 8
cfn=(1803)
calls=1 0 
0 222

fn=(2000)
0 1898259
cfn=(1484)
calls=82533 0 
0 130175748
0 165066

fn=(350) getenv
0 171
cfn=(352)
calls=19 0 
0 394
0 12673

fn=(410)
0 8

fn=(416)
0 713
cfn=(1936) arena_get2.isra.4
calls=3 0 
0 2455
0 12
cfn=(436)
calls=3 0 
0 390
0 132
cfn=(436)
calls=44 0 
0 5810
0 1634
cfn=(418)
calls=1 0 
0 58017

fn=(417)
0 18
cfn=(436)
calls=1 0 
0 1036
0 32

fn=(872)
0 21
cfn=(690)
calls=1 0 
0 66
0 13
cob=(11)
cfi=(12)
cfn=(874)
calls=1 68 
0 111552
0 8
cfn=(1428) _setjmp
calls=1 0 
0 29
0 14
cob=(11)
cfi=(28)
cfn=(1434)
calls=1 41 
0 4308946497
0 2

fn=(1028) wctob
0 2432

fn=(1428)
0 8
cfn=(1430)
calls=4 0 
0 108

fn=(1446)
0 25
cfn=(352)
calls=5 0 
0 170
0 120
cfn=(1448)
calls=1 0 
0 1926
0 16
cfn=(1448)
calls=4 0 
0 850
0 143
cfn=(1468)
calls=5 0 
0 690
0 15

fn=(1468)
0 546
cfn=(1450)
calls=91 0 
0 12622

fn=(1474)
0 352
cfn=(1476)
calls=11 0 
0 55
0 330
cfn=(1944)
calls=165 0 
0 1815
0 990
cfn=(1974)
calls=165 0 
0 1980
0 825

fn=(1484)
0 2723721
cfn=(1486)
calls=82536 0 
0 1650744
0 990432
cfn=(1448)
calls=82536 0 
0 1238457
0 4456872
cob=(5)
cfi=(5)
cfn=(1514)
calls=82536 0 
0 660288
0 660288
cob=(5)
cfi=(5)
cfn=(1488)
calls=82536 0 
0 1155504
0 5780694
cfn=(1486)
calls=82605 0 
0 1652148
0 908655
cfn=(1448)
calls=82605 0 
0 5216930
0 1325268
cfn=(1448)
calls=69 0 
0 7425
0 1311
cfn=(1492)
calls=69 0 
0 2358
0 2560560
cfn=(1494)
calls=82503 0 
0 990036
0 6272505
cfn=(1496)
calls=82536 0 
0 87968634
0 1155438
cfn=(1494)
calls=82503 0 
0 990036
0 1815066

fn=(1508)
0 10708400

fn=(1558)
0 7

fn=(1580)
0 78
cfn=(1582)
calls=39 0 
0 33447

fn=(1594)
0 468
cfn=(1596)
calls=39 0 
0 1296
0 585
cfn=(1590)
calls=39 0 
0 429
0 393
cfn=(1980)
calls=33 0 
0 8250
0 66

fn=(1936)
0 126
cfn=(1938)
calls=3 0 
0 193
0 21
cfn=(440)
calls=3 0 
0 1944
0 171

fn=(2006)
0 67650

ob=(5)
fl=(5)
fn=(584) pthread_attr_setdetachstate
0 5

fn=(232) __libc_sigaction
0 134

fn=(276) __init_cpu_features
0 78

fn=(570) pthread_attr_init@@GLIBC_2.2.5
0 27
cob=(3)
cfi=(3)
cfn=(576)
calls=1 0 
0 5
cob=(1)
cfi=(1)
cfn=(180)
calls=1 0 
0 1509
0 5
0 5

fn=(1514)
0 660912

fn=(230) __pthread_initialize_minimal
0 65
cfn=(232)
calls=1 0 
0 67
0 7
cfn=(232)
calls=1 0 
0 67
0 11
cob=(1)
cfi=(1)
cfn=(240)
calls=1 0 
0 5
cob=(1)
cfi=(1)
cfn=(180)
calls=1 0 
0 1715
0 5
0 12
cob=(3)
cfi=(3)
cfn=(246)
calls=1 0 
0 5
cob=(1)
cfi=(1)
cfn=(180)
calls=1 0 
0 1448
0 5
0 24
cob=(3)
cfi=(3)
cfn=(252)
calls=1 0 
0 3
cob=(1)
cfi=(1)
cfn=(180)
calls=1 0 
0 1621
0 5
0 3
cob=(1)
cfi=(1)
cfn=(78)
calls=1 0 
0 2
0 22
cob=(3)
cfi=(3)
cfn=(258)
calls=1 0 
0 443
cob=(1)
cfi=(1)
cfn=(180)
calls=1 0 
0 1629
0 5
0 17

fn=(1860) do_clone.constprop.3
0 63
cob=(3)
cfi=(3)
cfn=(1866)
calls=3 0 
0 54
cob=(1)
cfi=(1)
cfn=(180)
calls=1 0 
0 1419
0 7
0 33

fn=(274) __get_cpu_features
0 4
cfn=(276)
calls=1 0 
0 78
0 2

fn=(498) pthread_getaffinity_np@@GLIBC_2.3.4
0 17
cob=(3)
cfi=(3)
cfn=(504)
calls=1 0 
0 19
cob=(1)
cfi=(1)
cfn=(180)
calls=1 0 
0 1404
0 5
0 3

fn=(272)
0 2
cfn=(274)
calls=1 0 
0 84
0 12

fn=(1764) pthread_setspecific
0 34

fn=(264)
0 16

fn=(430)
0 2
cfn=(432) __pthread_mutex_unlock_usercnt
calls=1 0 
0 32

fn=(432)
0 32

fn=(490) pthread_self
0 2

fn=(424)
0 33

fn=(1842) pthread_create@@GLIBC_2.2.5
0 48
cob=(3)
cfi=(3)
cfn=(576)
calls=3 0 
0 15
0 3
0 351
cfn=(1860)
calls=3 0 
0 1576
0 108
cob=(3)
cfi=(3)
cfn=(1460)
calls=3 0 
0 18
cob=(1)
cfi=(1)
cfn=(180)
calls=1 0 
0 1440
0 7
0 63
cob=(1)
cfi=(1)
cfn=(1852)
calls=3 0 
0 2483
cob=(1)
cfi=(1)
cfn=(180)
calls=1 0 
0 1618
0 7
0 78
cob=(3)
cfi=(3)
cfn=(1858)
calls=3 0 
0 15
cob=(1)
cfi=(1)
cfn=(180)
calls=1 0 
0 1473
0 7
0 6

fn=(622) pthread_key_create
0 45

fn=(1872)
0 39
cob=(3)
cfi=(3)
cfn=(284)
calls=3 0 
0 48
cob=(1)
cfi=(1)
cfn=(180)
calls=1 0 
0 1549
0 7
0 45
cob=(3)
cfi=(3)
cfn=(1428)
calls=3 0 
0 87
cob=(1)
cfi=(1)
cfn=(180)
calls=1 0 
0 1433
0 7
0 30
cob=(8)
cfi=(8)
cfn=(1882) 0x000000000000fe10
calls=3 0 
0 12959404989

fn=(910) pthread_once
0 102
cob=(9)
cfi=(9)
cfn=(912) 0x00000000000a7e40
calls=1 0 
0 74585
0 10

fn=(911) pthread_once'2
0 70
cob=(9)
cfi=(9)
cfn=(938) 0x00000000000a5a60
calls=1 0 
0 2651
0 10

fn=(1488)
0 1156596

ob=(10)
fl=(10)
fn=(854)
0 16

ob=(6)
fl=(6)
fn=(296)
0 16

fn=(304)
0 3

ob=(2)
fl=(2)
fn=(228)
0 2
cob=(5)
cfi=(5)
cfn=(230)
calls=1 0 
0 7186
0 2

fn=(876)
0 6

fn=(850)
0 6

fn=(292)
0 6

fn=(306)
0 6

fn=(650)
0 6

fn=(662)
0 6

fn=(330)
0 6

ob=(9)
fl=(9)
fn=(666)
0 17

fn=(698)
0 2
cfn=(704) std::future_category()
calls=1 0 
0 1566
cob=(1)
cfi=(1)
cfn=(180)
calls=1 0 
0 770
0 5
0 4

fn=(710) __cxa_guard_acquire
0 30

fn=(730)
0 73

fn=(930) std::ctype<char>::ctype(unsigned short const*, bool, unsigned long)
0 14
cfn=(936) std::locale::facet::_S_get_c_locale()
calls=1 0 
0 2690
cob=(1)
cfi=(1)
cfn=(180)
calls=1 0 
0 861
0 5
0 102

fn=(968) std::codecvt<char, char, __mbstate_t>::codecvt(unsigned long)
0 12
cfn=(936)
calls=1 0 
0 15
0 1
0 5

fn=(1004) std::__cxx11::messages<char>::messages(unsigned long)
0 12
cfn=(936)
calls=1 0 
0 15
0 1
0 2
cfn=(924) std::locale::facet::_S_get_c_name()
calls=1 0 
0 2
0 1
0 5

fn=(1016) std::ctype<wchar_t>::_M_initialize_ctype()
0 9
cob=(3)
cfi=(3)
cfn=(1022)
calls=1 0 
0 21
cob=(1)
cfi=(1)
cfn=(180)
calls=1 0 
0 1481
0 5
0 770
cob=(3)
cfi=(3)
cfn=(1028)
calls=128 0 
0 2432
cob=(1)
cfi=(1)
cfn=(180)
calls=1 0 
0 1432
0 132
0 260
cob=(3)
cfi=(3)
cfn=(1034)
calls=1 0 
0 19
cob=(1)
cfi=(1)
cfn=(180)
calls=1 0 
0 1388
0 5
0 510
cob=(3)
cfi=(3)
cfn=(1034)
calls=255 0 
0 9197
0 255
0 1067
cfn=(1044) std::ctype<wchar_t>::_M_convert_to_wmask(unsigned short) const
calls=8 0 
0 3156
cob=(1)
cfi=(1)
cfn=(180)
calls=1 0 
0 869
0 12
0 16
cfn=(1044)
calls=4 0 
0 1609
0 4
0 123
cob=(3)
cfi=(3)
cfn=(1022)
calls=1 0 
0 21
0 1
0 2

fn=(1082) std::__timepunct<wchar_t>::__timepunct(std::__timepunct_cache<wchar_t>*, unsigned long)
0 14
cfn=(924)
calls=1 0 
0 2
0 1
0 4
cfn=(1088) std::__timepunct<wchar_t>::_M_initialize_timepunct(__locale_struct*)
calls=1 0 
0 121
cob=(1)
cfi=(1)
cfn=(180)
calls=1 0 
0 1093
0 5
0 4

fn=(1096) 0x00000000000bf180
0 20
cfn=(1102) std::numpunct<char>::_M_initialize_numpunct(__locale_struct*)
calls=1 0 
0 413
cob=(1)
cfi=(1)
cfn=(180)
calls=1 0 
0 1053
0 5
0 8
cfn=(962) std::locale::id::_M_id() const
calls=1 0 
0 13
0 1
0 8
cfn=(936)
calls=1 0 
0 15
0 1
0 8
cfn=(962)
calls=1 0 
0 13
0 1
0 12
cfn=(1120) std::moneypunct<char, false>::_M_initialize_moneypunct(__locale_struct*, char const*)
calls=1 0 
0 112
cob=(1)
cfi=(1)
cfn=(180)
calls=1 0 
0 1149
0 5
0 7
cfn=(962)
calls=1 0 
0 13
0 1
0 12
cfn=(1132) std::moneypunct<char, true>::_M_initialize_moneypunct(__locale_struct*, char const*)
calls=1 0 
0 112
cob=(1)
cfi=(1)
cfn=(180)
calls=1 0 
0 1157
0 5
0 9
cfn=(962)
calls=1 0 
0 13
0 1
0 12
cfn=(962)
calls=1 0 
0 13
0 1
0 12
cfn=(962)
calls=1 0 
0 13
0 1
0 12
cfn=(962)
calls=1 0 
0 13
0 1
0 6
cfn=(1150) std::messages<char>::messages(unsigned long)
calls=1 0 
0 38
cob=(1)
cfi=(1)
cfn=(180)
calls=1 0 
0 756
0 5
0 5
cfn=(962)
calls=1 0 
0 13
0 1
0 17
cfn=(1160) std::numpunct<wchar_t>::_M_initialize_numpunct(__locale_struct*)
calls=1 0 
0 349
cob=(1)
cfi=(1)
cfn=(180)
calls=1 0 
0 1045
0 5
0 7
cfn=(962)
calls=1 0 
0 13
0 1
0 8
cfn=(936)
calls=1 0 
0 15
0 1
0 8
cfn=(962)
calls=1 0 
0 13
0 1
0 13
cfn=(1178) std::moneypunct<wchar_t, false>::_M_initialize_moneypunct(__locale_struct*, char const*)
calls=1 0 
0 101
cob=(1)
cfi=(1)
cfn=(180)
calls=1 0 
0 1149
0 5
0 7
cfn=(962)
calls=1 0 
0 13
0 1
0 12
cfn=(1190) std::moneypunct<wchar_t, true>::_M_initialize_moneypunct(__locale_struct*, char const*)
calls=1 0 
0 101
cob=(1)
cfi=(1)
cfn=(180)
calls=1 0 
0 1157
0 5
0 8
cfn=(962)
calls=1 0 
0 13
0 1
0 12
cfn=(962)
calls=1 0 
0 13
0 1
0 12
cfn=(962)
calls=1 0 
0 13
0 1
0 12
cfn=(962)
calls=1 0 
0 13
0 1
0 6
cfn=(1208) std::messages<wchar_t>::messages(unsigned long)
calls=1 0 
0 38
cob=(1)
cfi=(1)
cfn=(180)
calls=1 0 
0 732
0 5
0 5
cfn=(962)
calls=1 0 
0 13
0 1
0 7
cfn=(962)
calls=1 0 
0 5
0 1
0 5
cfn=(962)
calls=1 0 
0 5
0 1
0 4
cfn=(962)
calls=1 0 
0 5
0 1
0 4
cfn=(962)
calls=1 0 
0 5
0 1
0 5
cfn=(962)
calls=1 0 
0 5
0 1
0 5
cfn=(962)
calls=1 0 
0 5
0 1
0 9

fn=(1266) std::basic_ios<char, std::char_traits<char> >::_M_cache_locale(std::locale const&)
0 28
cfn=(1272) bool std::has_facet<std::ctype<char> >(std::locale const&)
calls=4 0 
0 2750
cob=(1)
cfi=(1)
cfn=(180)
calls=1 0 
0 900
0 8
0 16
cfn=(1294) std::ctype<char> const& std::use_facet<std::ctype<char> >(std::locale const&)
calls=4 0 
0 624
cob=(1)
cfi=(1)
cfn=(180)
calls=1 0 
0 927
0 8
0 12
cfn=(1300) bool std::has_facet<std::num_put<char, std::ostreambuf_iterator<char, std::char_traits<char> > > >(std::locale const&)
calls=4 0 
0 436
cob=(1)
cfi=(1)
cfn=(180)
calls=1 0 
0 1260
0 8
0 16
cfn=(1308) std::num_put<char, std::ostreambuf_iterator<char, std::char_traits<char> > > const& std::use_facet<std::num_put<char, std::ostreambuf_iterator<char, std::char_traits<char> > > >(std::locale const&)
calls=4 0 
0 428
cob=(1)
cfi=(1)
cfn=(180)
calls=1 0 
0 1268
0 8
0 12
cfn=(1314) bool std::has_facet<std::num_get<char, std::istreambuf_iterator<char, std::char_traits<char> > > >(std::locale const&)
calls=4 0 
0 436
cob=(1)
cfi=(1)
cfn=(180)
calls=1 0 
0 1244
0 8
0 16
cfn=(1320) std::num_get<char, std::istreambuf_iterator<char, std::char_traits<char> > > const& std::use_facet<std::num_get<char, std::istreambuf_iterator<char, std::char_traits<char> > > >(std::locale const&)
calls=4 0 
0 428
cob=(1)
cfi=(1)
cfn=(180)
calls=1 0 
0 1276
0 8
0 20

fn=(1574)
0 81

fn=(1628)
0 27

fn=(980) std::__cxx11::moneypunct<char, false>::_M_initialize_moneypunct(__locale_struct*, char const*)
0 112

fn=(1076) std::__cxx11::moneypunct<wchar_t, true>::_M_initialize_moneypunct(__locale_struct*, char const*)
0 101

fn=(1236) std::ios_base::ios_base()
0 472
cfn=(900) std::locale::locale()
calls=8 0 
0 280
0 8

fn=(1522)
0 33
cob=(3)
cfi=(3)
cfn=(352)
calls=3 0 
0 66
cob=(1)
cfi=(1)
cfn=(180)
calls=1 0 
0 1404
0 7
0 18
cfn=(1532) char* std::string::_S_construct<char const*>(char const*, char const*, std::allocator<char> const&, std::forward_iterator_tag)
calls=3 0 
0 3747
cob=(1)
cfi=(1)
cfn=(180)
calls=1 0 
0 1113
0 7
0 21

fn=(1642)
0 42
cfn=(1648) std::ostream::sentry::sentry(std::ostream&)
calls=3 0 
0 69
cob=(1)
cfi=(1)
cfn=(180)
calls=1 0 
0 708
0 7
0 90
cfn=(1650) __gnu_cxx::stdio_sync_filebuf<char, std::char_traits<char> >::xsputn(char const*, long)
calls=3 0 
0 2006
0 18

fn=(1664)
0 1087
cob=(3)
cfi=(3)
cfn=(1672)
calls=1 0 
0 111
cob=(1)
cfi=(1)
cfn=(180)
calls=1 0 
0 1415
0 5
0 7

fn=(720)
0 9
cob=(3)
cfi=(3)
cfn=(416)
calls=1 0 
0 184
cob=(1)
cfi=(1)
cfn=(180)
calls=1 0 
0 1439
0 5
0 8

fn=(956) std::locale::_Impl::_M_install_facet(std::locale::id const*, std::locale::facet const*)
0 390
cfn=(962)
calls=30 0 
0 390
cob=(1)
cfi=(1)
cfn=(180)
calls=1 0 
0 757
0 34
0 11850

fn=(1132)
0 112

fn=(1190)
0 101

fn=(1242) std::basic_ios<char, std::char_traits<char> >::init(std::basic_streambuf<char, std::char_traits<char> >*)
0 24
cfn=(1248) std::ios_base::_M_init()
calls=4 0 
0 1806
cob=(1)
cfi=(1)
cfn=(180)
calls=1 0 
0 757
0 8
0 12
cfn=(1266)
calls=4 0 
0 12145
cob=(1)
cfi=(1)
cfn=(180)
calls=1 0 
0 1092
0 8
0 52

fn=(1300)
0 16
cfn=(962)
calls=4 0 
0 20
0 4
0 52
cfn=(1278) __dynamic_cast
calls=4 0 
0 324
0 4
0 16

fn=(1302) __cxxabiv1::__si_class_type_info::__do_dyncast(long, __cxxabiv1::__class_type_info::__sub_kind, __cxxabiv1::__class_type_info const*, void const*, __cxxabiv1::__class_type_info const*, void const*, __cxxabiv1::__class_type_info::__dyncast_result&) const
0 1360

fn=(1356) std::num_put<wchar_t, std::ostreambuf_iterator<wchar_t, std::char_traits<wchar_t> > > const& std::use_facet<std::num_put<wchar_t, std::ostreambuf_iterator<wchar_t, std::char_traits<wchar_t> > > >(std::locale const&)
0 16
cfn=(962)
calls=4 0 
0 20
0 4
0 44
cfn=(1278)
calls=4 0 
0 324
0 4
0 16

fn=(1540) std::string::_Rep::_S_create(unsigned long, unsigned long, std::allocator<char> const&)
0 48
cfn=(1546) operator new(unsigned long)
calls=3 0 
0 624
cob=(1)
cfi=(1)
cfn=(180)
calls=1 0 
0 613
0 7
0 12

fn=(1648)
0 138

fn=(1680)
0 27
cfn=(1648)
calls=3 0 
0 69
0 3
0 72
cfn=(1682) __gnu_cxx::stdio_sync_filebuf<char, std::char_traits<char> >::overflow(int)
calls=3 0 
0 1956
0 6

fn=(716) __cxa_guard_release
0 7

fn=(780)
0 33

fn=(944) std::locale::facet::_S_create_c_locale(__locale_struct*&, char const*, __locale_struct*)
0 4
cob=(3)
cfi=(3)
cfn=(950)
calls=1 0 
0 40
cob=(1)
cfi=(1)
cfn=(180)
calls=1 0 
0 1503
0 5
0 5

fn=(986) std::__cxx11::moneypunct<char, true>::_M_initialize_moneypunct(__locale_struct*, char const*)
0 112

fn=(1044)
0 102
cob=(3)
cfi=(3)
cfn=(1050)
calls=1 0 
0 146
0 1
0 9
cob=(3)
cfi=(3)
cfn=(1050)
calls=1 0 
0 514
0 1
0 3
cob=(3)
cfi=(3)
cfn=(1050)
calls=1 0 
0 318
0 1
0 5
cob=(3)
cfi=(3)
cfn=(1050)
calls=1 0 
0 97
cob=(1)
cfi=(1)
cfn=(180)
calls=1 0 
0 1488
0 5
0 3
cob=(3)
cfi=(3)
cfn=(1050)
calls=1 0 
0 195
0 1
0 3
cob=(3)
cfi=(3)
cfn=(1050)
calls=1 0 
0 244
0 1
0 3
cob=(3)
cfi=(3)
cfn=(1050)
calls=1 0 
0 367
0 1
0 3
cob=(3)
cfi=(3)
cfn=(1050)
calls=1 0 
0 465
0 1
0 3
cob=(3)
cfi=(3)
cfn=(1050)
calls=1 0 
0 197
0 1
0 3
cob=(3)
cfi=(3)
cfn=(1050)
calls=1 0 
0 583
0 1

fn=(1320)
0 16
cfn=(962)
calls=4 0 
0 20
0 4
0 44
cfn=(1278)
calls=4 0 
0 324
0 4
0 16

fn=(1350) bool std::has_facet<std::num_put<wchar_t, std::ostreambuf_iterator<wchar_t, std::char_traits<wchar_t> > > >(std::locale const&)
0 16
cfn=(962)
calls=4 0 
0 20
0 4
0 52
cfn=(1278)
calls=4 0 
0 324
0 4
0 16

fn=(1546)
0 21
cob=(3)
cfi=(3)
cfn=(416)
calls=3 0 
0 588
0 3
0 12

fn=(1682)
0 18
cob=(3)
cfi=(3)
cfn=(1688)
calls=3 0 
0 534
cob=(1)
cfi=(1)
cfn=(180)
calls=1 0 
0 1397
0 7

fn=(824)
0 49

fn=(894)
0 315
cfn=(900)
calls=1 0 
0 75509
cob=(1)
cfi=(1)
cfn=(180)
calls=1 0 
0 701
0 5
0 16
cfn=(900)
calls=1 0 
0 35
0 1
0 14
cfn=(900)
calls=1 0 
0 35
0 1
0 6
cfn=(1236)
calls=1 0 
0 95
cob=(1)
cfi=(1)
cfn=(180)
calls=1 0 
0 709
0 5
0 15
cfn=(1242)
calls=1 0 
0 13231
cob=(1)
cfi=(1)
cfn=(180)
calls=1 0 
0 1132
0 5
0 3
cfn=(1236)
calls=1 0 
0 95
0 1
0 16
cfn=(1242)
calls=1 0 
0 891
0 1
0 3
cfn=(1236)
calls=1 0 
0 95
0 1
0 14
cfn=(1242)
calls=1 0 
0 891
0 1
0 3
cfn=(1236)
calls=1 0 
0 95
0 1
0 14
cfn=(1242)
calls=1 0 
0 891
0 1
0 16
cfn=(900)
calls=1 0 
0 35
0 1
0 16
cfn=(900)
calls=1 0 
0 35
0 1
0 14
cfn=(900)
calls=1 0 
0 35
0 1
0 6
cfn=(1236)
calls=1 0 
0 95
0 1
0 15
cfn=(1326) std::basic_ios<wchar_t, std::char_traits<wchar_t> >::init(std::basic_streambuf<wchar_t, std::char_traits<wchar_t> >*)
calls=1 0 
0 8777
cob=(1)
cfi=(1)
cfn=(180)
calls=1 0 
0 1116
0 5
0 3
cfn=(1236)
calls=1 0 
0 95
0 1
0 16
cfn=(1326)
calls=1 0 
0 793
0 1
0 3
cfn=(1236)
calls=1 0 
0 95
0 1
0 14
cfn=(1326)
calls=1 0 
0 793
0 1
0 3
cfn=(1236)
calls=1 0 
0 95
0 1
0 14
cfn=(1326)
calls=1 0 
0 793
0 1
0 14

fn=(900)
0 132
cfn=(902) 0x00000000000a7e80
calls=22 0 
0 75826
0 286

fn=(938)
0 4
cfn=(944)
calls=1 0 
0 1557
cob=(1)
cfi=(1)
cfn=(180)
calls=1 0 
0 1085
0 5

fn=(998) std::__timepunct<char>::_M_initialize_timepunct(__locale_struct*)
0 10
cfn=(936)
calls=1 0 
0 15
0 1
0 97

fn=(1160)
0 349

fn=(1208)
0 12
cfn=(936)
calls=1 0 
0 15
0 1
0 2
cfn=(924)
calls=1 0 
0 2
0 1
0 5

fn=(1248)
0 72
cfn=(900)
calls=8 0 
0 280
0 8
0 24
cfn=(1254) std::locale::operator=(std::locale const&)
calls=8 0 
0 152
cob=(1)
cfi=(1)
cfn=(180)
calls=1 0 
0 725
0 12
0 16
cfn=(1260) std::locale::~locale()
calls=8 0 
0 80
cob=(1)
cfi=(1)
cfn=(180)
calls=1 0 
0 733
0 12
0 32

fn=(1314)
0 16
cfn=(962)
calls=4 0 
0 20
0 4
0 52
cfn=(1278)
calls=4 0 
0 324
0 4
0 16

fn=(1326)
0 24
cfn=(1248)
calls=4 0 
0 340
0 4
0 12
cfn=(1332) std::basic_ios<wchar_t, std::char_traits<wchar_t> >::_M_cache_locale(std::locale const&)
calls=4 0 
0 9600
cob=(1)
cfi=(1)
cfn=(180)
calls=1 0 
0 1116
0 8
0 52

fn=(1338) bool std::has_facet<std::ctype<wchar_t> >(std::locale const&)
0 16
cfn=(962)
calls=4 0 
0 20
0 4
0 52
cfn=(1278)
calls=4 0 
0 324
0 4
0 16

fn=(1368) std::num_get<wchar_t, std::istreambuf_iterator<wchar_t, std::char_traits<wchar_t> > > const& std::use_facet<std::num_get<wchar_t, std::istreambuf_iterator<wchar_t, std::char_traits<wchar_t> > > >(std::locale const&)
0 16
cfn=(962)
calls=4 0 
0 20
0 4
0 44
cfn=(1278)
calls=4 0 
0 324
0 4
0 16

fn=(1694)
0 27
cfn=(1696) __gnu_cxx::stdio_sync_filebuf<char, std::char_traits<char> >::sync()
calls=3 0 
0 1578
0 15

fn=(1696)
0 6
cob=(3)
cfi=(3)
cfn=(1702)
calls=3 0 
0 162
cob=(1)
cfi=(1)
cfn=(180)
calls=1 0 
0 1403
0 7

fn=(704)
0 5
cfn=(710)
calls=1 0 
0 30
cob=(1)
cfi=(1)
cfn=(180)
calls=1 0 
0 718
0 5
0 4
cfn=(716)
calls=1 0 
0 7
cob=(1)
cfi=(1)
cfn=(180)
calls=1 0 
0 718
0 5
0 4
cob=(3)
cfi=(3)
cfn=(690)
calls=1 0 
0 66
0 1
0 3

fn=(924)
0 14

fn=(1058) std::codecvt<wchar_t, char, __mbstate_t>::codecvt(unsigned long)
0 12
cfn=(936)
calls=1 0 
0 15
0 1
0 5

fn=(1094) std::__cxx11::messages<wchar_t>::messages(unsigned long)
0 12
cfn=(936)
calls=1 0 
0 15
0 1
0 2
cfn=(924)
calls=1 0 
0 2
0 1
0 5

fn=(1178)
0 101

fn=(1308)
0 16
cfn=(962)
calls=4 0 
0 20
0 4
0 44
cfn=(1278)
calls=4 0 
0 324
0 4
0 16

fn=(1344) std::ctype<wchar_t> const& std::use_facet<std::ctype<wchar_t> >(std::locale const&)
0 16
cfn=(962)
calls=4 0 
0 20
0 4
0 44
cfn=(1278)
calls=4 0 
0 324
0 4
0 16

fn=(1362) bool std::has_facet<std::num_get<wchar_t, std::istreambuf_iterator<wchar_t, std::char_traits<wchar_t> > > >(std::locale const&)
0 16
cfn=(962)
calls=4 0 
0 20
0 4
0 52
cfn=(1278)
calls=4 0 
0 324
0 4
0 16

fn=(1650)
0 15
cob=(3)
cfi=(3)
cfn=(1656)
calls=3 0 
0 573
cob=(1)
cfi=(1)
cfn=(180)
calls=1 0 
0 1411
0 7

fn=(682) std::error_category::error_category()
0 8

fn=(756)
0 54

fn=(918) std::locale::_Impl::_Impl(unsigned long)
0 444
cfn=(924)
calls=1 0 
0 2
cob=(1)
cfi=(1)
cfn=(180)
calls=1 0 
0 867
0 5
0 7
cfn=(930)
calls=1 0 
0 3672
cob=(1)
cfi=(1)
cfn=(180)
calls=1 0 
0 741
0 5
0 4
cfn=(956)
calls=1 0 
0 1183
cob=(1)
cfi=(1)
cfn=(180)
calls=1 0 
0 1061
0 5
0 3
cfn=(968)
calls=1 0 
0 33
cob=(1)
cfi=(1)
cfn=(180)
calls=1 0 
0 837
0 5
0 4
cfn=(956)
calls=1 0 
0 422
0 1
0 23
cfn=(974) std::__cxx11::numpunct<char>::_M_initialize_numpunct(__locale_struct*)
calls=1 0 
0 413
cob=(1)
cfi=(1)
cfn=(180)
calls=1 0 
0 1146
0 5
0 5
cfn=(956)
calls=1 0 
0 422
0 1
0 8
cfn=(956)
calls=1 0 
0 422
0 1
0 8
cfn=(956)
calls=1 0 
0 422
0 1
0 5
cfn=(936)
calls=1 0 
0 15
0 1
0 5
cfn=(956)
calls=1 0 
0 422
0 1
0 35
cfn=(980)
calls=1 0 
0 112
cob=(1)
cfi=(1)
cfn=(180)
calls=1 0 
0 1234
0 5
0 5
cfn=(956)
calls=1 0 
0 422
0 1
0 35
cfn=(986)
calls=1 0 
0 112
cob=(1)
cfi=(1)
cfn=(180)
calls=1 0 
0 1277
0 5
0 5
cfn=(956)
calls=1 0 
0 422
0 1
0 8
cfn=(956)
calls=1 0 
0 422
0 1
0 8
cfn=(956)
calls=1 0 
0 422
0 1
0 56
cfn=(992) std::__timepunct<char>::__timepunct(std::__timepunct_cache<char>*, unsigned long)
calls=1 0 
0 1254
cob=(1)
cfi=(1)
cfn=(180)
calls=1 0 
0 972
0 5
0 5
cfn=(956)
calls=1 0 
0 422
0 1
0 8
cfn=(956)
calls=1 0 
0 422
0 1
0 8
cfn=(956)
calls=1 0 
0 422
0 1
0 3
cfn=(1004)
calls=1 0 
0 38
cob=(1)
cfi=(1)
cfn=(180)
calls=1 0 
0 817
0 5
0 4
cfn=(956)
calls=1 0 
0 422
0 1
0 3
cfn=(1010) std::ctype<wchar_t>::ctype(unsigned long)
calls=1 0 
0 25705
cob=(1)
cfi=(1)
cfn=(180)
calls=1 0 
0 709
0 5
0 4
cfn=(956)
calls=1 0 
0 422
0 1
0 3
cfn=(1058)
calls=1 0 
0 33
cob=(1)
cfi=(1)
cfn=(180)
calls=1 0 
0 837
0 5
0 4
cfn=(956)
calls=1 0 
0 422
0 1
0 23
cfn=(1064) std::__cxx11::numpunct<wchar_t>::_M_initialize_numpunct(__locale_struct*)
calls=1 0 
0 349
cob=(1)
cfi=(1)
cfn=(180)
calls=1 0 
0 1138
0 5
0 4
cfn=(956)
calls=1 0 
0 422
0 1
0 8
cfn=(956)
calls=1 0 
0 422
0 1
0 8
cfn=(956)
calls=1 0 
0 422
0 1
0 5
cfn=(936)
calls=1 0 
0 15
0 1
0 5
cfn=(956)
calls=1 0 
0 422
0 1
0 35
cfn=(1070) std::__cxx11::moneypunct<wchar_t, false>::_M_initialize_moneypunct(__locale_struct*, char const*)
calls=1 0 
0 101
cob=(1)
cfi=(1)
cfn=(180)
calls=1 0 
0 1242
0 5
0 4
cfn=(956)
calls=1 0 
0 422
0 1
0 35
cfn=(1076)
calls=1 0 
0 101
cob=(1)
cfi=(1)
cfn=(180)
calls=1 0 
0 1226
0 5
0 4
cfn=(956)
calls=1 0 
0 422
0 1
0 8
cfn=(956)
calls=1 0 
0 422
0 1
0 8
cfn=(956)
calls=1 0 
0 422
0 1
0 56
cfn=(1082)
calls=1 0 
0 1244
cob=(1)
cfi=(1)
cfn=(180)
calls=1 0 
0 972
0 5
0 4
cfn=(956)
calls=1 0 
0 422
0 1
0 8
cfn=(956)
calls=1 0 
0 422
0 1
0 8
cfn=(956)
calls=1 0 
0 422
0 1
0 3
cfn=(1094)
calls=1 0 
0 38
cob=(1)
cfi=(1)
cfn=(180)
calls=1 0 
0 817
0 5
0 4
cfn=(956)
calls=1 0 
0 422
0 1
0 8
cfn=(956)
calls=1 0 
0 422
0 1
0 8
cfn=(956)
calls=1 0 
0 422
0 1
0 15
cfn=(1096)
calls=1 0 
0 10091
0 3
cfn=(962)
calls=1 0 
0 5
0 1
0 5
cfn=(962)
calls=1 0 
0 5
0 1
0 5
cfn=(962)
calls=1 0 
0 5
0 1
0 5
cfn=(962)
calls=1 0 
0 5
0 1
0 5
cfn=(962)
calls=1 0 
0 5
0 1
0 5
cfn=(962)
calls=1 0 
0 5
0 1
0 5
cfn=(962)
calls=1 0 
0 5
0 1
0 5
cfn=(962)
calls=1 0 
0 5
0 1
0 10

fn=(992)
0 14
cfn=(924)
calls=1 0 
0 2
0 1
0 4
cfn=(998)
calls=1 0 
0 123
cob=(1)
cfi=(1)
cfn=(180)
calls=1 0 
0 1101
0 5
0 4

fn=(1120)
0 112

fn=(1254)
0 152

fn=(1272)
0 16
cfn=(962)
calls=4 0 
0 20
0 4
0 52
cfn=(1278)
calls=4 0 
0 1948
cob=(1)
cfi=(1)
cfn=(180)
calls=1 0 
0 686
0 8
0 16

fn=(1532)
0 27
cfn=(1540)
calls=3 0 
0 1304
cob=(1)
cfi=(1)
cfn=(180)
calls=1 0 
0 804
0 7
0 60
cob=(3)
cfi=(3)
cfn=(1560)
calls=3 0 
0 50
cob=(1)
cfi=(1)
cfn=(180)
calls=1 0 
0 1461
0 7
0 27

fn=(674)
0 5
cfn=(682)
calls=1 0 
0 4
cob=(1)
cfi=(1)
cfn=(180)
calls=1 0 
0 802
0 5
0 7
cob=(3)
cfi=(3)
cfn=(690)
calls=1 0 
0 60
cob=(1)
cfi=(1)
cfn=(180)
calls=1 0 
0 1537
0 5
0 3
cfn=(682)
calls=1 0 
0 4
0 1
0 7
cob=(3)
cfi=(3)
cfn=(690)
calls=1 0 
0 66
0 1

fn=(798)
0 49

fn=(902)
0 132
cob=(5)
cfi=(5)
cfn=(910)
calls=22 0 
0 74697
cob=(1)
cfi=(1)
cfn=(180)
calls=1 0 
0 861
0 26
0 110

fn=(936)
0 84
cob=(5)
cfi=(5)
cfn=(911)
calls=14 0 
0 2731
0 14
0 56

fn=(962)
0 908

fn=(1070)
0 101

fn=(1150)
0 12
cfn=(936)
calls=1 0 
0 15
0 1
0 2
cfn=(924)
calls=1 0 
0 2
0 1
0 5

fn=(1260)
0 80

fn=(1280) __cxxabiv1::__vmi_class_type_info::__do_dyncast(long, __cxxabiv1::__class_type_info::__sub_kind, __cxxabiv1::__class_type_info const*, void const*, __cxxabiv1::__class_type_info const*, void const*, __cxxabiv1::__class_type_info::__dyncast_result&) const
0 240
cob=(3)
cfi=(3)
cfn=(1288)
calls=8 0 
0 192
cob=(1)
cfi=(1)
cfn=(180)
calls=1 0 
0 1424
0 12
0 224

fn=(1332)
0 28
cfn=(1338)
calls=4 0 
0 436
cob=(1)
cfi=(1)
cfn=(180)
calls=1 0 
0 876
0 8
0 16
cfn=(1344)
calls=4 0 
0 428
cob=(1)
cfi=(1)
cfn=(180)
calls=1 0 
0 900
0 8
0 12
cfn=(1350)
calls=4 0 
0 436
cob=(1)
cfi=(1)
cfn=(180)
calls=1 0 
0 1244
0 8
0 16
cfn=(1356)
calls=4 0 
0 428
cob=(1)
cfi=(1)
cfn=(180)
calls=1 0 
0 1292
0 8
0 12
cfn=(1362)
calls=4 0 
0 436
cob=(1)
cfi=(1)
cfn=(180)
calls=1 0 
0 1244
0 8
0 16
cfn=(1368)
calls=4 0 
0 428
cob=(1)
cfi=(1)
cfn=(180)
calls=1 0 
0 1284
0 8
0 20

fn=(1674)
0 2

fn=(758)
0 5
cob=(3)
cfi=(3)
cfn=(690)
calls=1 0 
0 66
0 1
0 5
cob=(3)
cfi=(3)
cfn=(690)
calls=1 0 
0 66
0 1

fn=(762)
0 33

fn=(912)
0 4
cfn=(918)
calls=1 0 
0 73820
cob=(1)
cfi=(1)
cfn=(180)
calls=1 0 
0 749
0 5
0 7

fn=(974)
0 413

fn=(1010)
0 12
cfn=(936)
calls=1 0 
0 15
0 1
0 7
cfn=(1016)
calls=1 0 
0 24796
cob=(1)
cfi=(1)
cfn=(180)
calls=1 0 
0 869
0 5

fn=(1064)
0 349

fn=(1088)
0 9
cfn=(936)
calls=1 0 
0 15
0 1
0 96

fn=(1102)
0 413

fn=(1278)
0 1776
cfn=(1302)
calls=40 0 
0 1360
cfn=(1280)
calls=8 0 
0 2092
0 480

fn=(1294)
0 16
cfn=(962)
calls=4 0 
0 20
0 4
0 44
cfn=(1278)
calls=4 0 
0 520
0 4
0 16

fn=(1932)
0 2970

ob=(8)
fl=(8)
fn=(360) 0x00000000000071d0
0 24
cob=(3)
cfi=(3)
cfn=(350)
calls=3 0 
0 2094
0 3
0 24

fn=(342)
0 9
cob=(3)
cfi=(3)
cfn=(350)
calls=1 0 
0 692
cob=(1)
cfi=(1)
cfn=(180)
calls=1 0 
0 1444
0 5
0 5
cfn=(360)
calls=1 0 
0 709
0 3
cfn=(360)
calls=1 0 
0 709
0 3
cfn=(360)
calls=1 0 
0 727
0 3
cfn=(372) 0x0000000000007b40
calls=1 0 
0 748
0 4
cfn=(374) 0x0000000000007290
calls=1 0 
0 734
0 4
cfn=(374)
calls=1 0 
0 734
0 5
cfn=(372)
calls=1 0 
0 730
0 1
cfn=(396) 0x0000000000012010
calls=1 0 
0 71310
0 4
cob=(3)
cfi=(3)
cfn=(350)
calls=1 0 
0 692
0 1
0 7
cob=(3)
cfi=(3)
cfn=(350)
calls=1 0 
0 692
0 1
0 6
cob=(3)
cfi=(3)
cfn=(350)
calls=1 0 
0 692
0 1
0 6
cob=(3)
cfi=(3)
cfn=(350)
calls=1 0 
0 710
0 1
0 7
cob=(3)
cfi=(3)
cfn=(350)
calls=1 0 
0 692
0 1
0 8
cob=(5)
cfi=(5)
cfn=(570)
calls=1 0 
0 1551
cob=(1)
cfi=(1)
cfn=(180)
calls=1 0 
0 1443
0 5
0 3
cob=(5)
cfi=(5)
cfn=(584)
calls=1 0 
0 5
cob=(1)
cfi=(1)
cfn=(180)
calls=1 0 
0 1593
0 5
0 3
cfn=(588) 0x00000000000079a0
calls=1 0 
0 715
0 5
cfn=(588)
calls=1 0 
0 715
0 5
cob=(3)
cfi=(3)
cfn=(350)
calls=1 0 
0 692
0 1
0 6
cfn=(372)
calls=1 0 
0 730
0 5
cob=(3)
cfi=(3)
cfn=(350)
calls=1 0 
0 692
0 1
0 4
cfn=(616) 0x0000000000018840
calls=1 0 
0 1522
0 19
cob=(3)
cfi=(3)
cfn=(350)
calls=1 0 
0 692
0 1
0 3

fn=(374)
0 55
cob=(3)
cfi=(3)
cfn=(350)
calls=5 0 
0 3514
0 5
0 60

fn=(1728)
0 8
cfn=(1730) 0x000000000000c6a0
calls=1 0 
0 31
0 3
cfn=(1744) 0x000000000000ffa0
calls=1 0 
0 257
0 88
cfn=(1780) 0x000000000000d610
calls=1 0 
0 23
0 119
cfn=(1780)
calls=3 0 
0 69
0 42
cob=(5)
cfi=(5)
cfn=(1842)
calls=3 0 
0 9316
cob=(1)
cfi=(1)
cfn=(180)
calls=1 0 
0 1398
0 7
0 51
cfn=(1886) 0x00000000000125a0
calls=1 0 
0 3538
0 44
cfn=(474) 0x0000000000009630
calls=1 0 
0 195
0 12
cob=(5)
cfi=(5)
cfn=(1764)
calls=1 0 
0 34
cob=(1)
cfi=(1)
cfn=(180)
calls=1 0 
0 1473
0 5
0 27
cfn=(1796) 0x0000000000009680
calls=1 0 
0 1710
0 5

fn=(644)
0 4
cob=(5)
cfi=(5)
cfn=(622)
calls=1 0 
0 26
0 1
0 4

fn=(1730)
0 31

fn=(1748) 0x0000000000011560
0 12

fn=(1796)
0 3
cob=(3)
cfi=(3)
cfn=(1802)
calls=1 0 
0 252
cob=(1)
cfi=(1)
cfn=(180)
calls=1 0 
0 1446
0 5
0 4

fn=(1882)
0 141
cfn=(1886)
calls=3 0 
0 21124
0 15
cob=(11)
cfi=(14)
cfn=(1918)
calls=3 40 
0 12959383709

fn=(396)
0 5
cob=(3)
cfi=(3)
cfn=(402)
calls=1 0 
0 61447
cob=(1)
cfi=(1)
cfn=(180)
calls=1 0 
0 1418
0 5
0 5
cfn=(474)
calls=1 0 
0 1647
0 3
cob=(5)
cfi=(5)
cfn=(490)
calls=1 0 
0 2
cob=(1)
cfi=(1)
cfn=(180)
calls=1 0 
0 1368
0 5
0 6
cob=(5)
cfi=(5)
cfn=(498)
calls=1 0 
0 1448
cob=(1)
cfi=(1)
cfn=(180)
calls=1 0 
0 1553
0 5
0 5
cob=(3)
cfi=(3)
cfn=(516)
calls=1 0 
0 13
cob=(1)
cfi=(1)
cfn=(180)
calls=1 0 
0 1561
0 5
0 809

fn=(474)
0 9
cob=(3)
cfi=(3)
cfn=(416)
calls=3 0 
0 562
cob=(1)
cfi=(1)
cfn=(180)
calls=1 0 
0 1439
0 7
0 12

fn=(616)
0 35
cob=(5)
cfi=(5)
cfn=(622)
calls=1 0 
0 19
cob=(1)
cfi=(1)
cfn=(180)
calls=1 0 
0 1458
0 5
0 5

fn=(1956)
0 31166630

fn=(1744)
0 7
cfn=(474)
calls=1 0 
0 187
0 8
cfn=(1748)
calls=1 0 
0 12
0 43

fn=(1886)
0 24662

fn=(334)
0 17

fn=(588)
0 20
cob=(3)
cfi=(3)
cfn=(350)
calls=2 0 
0 1384
0 2
0 24

fn=(1780)
0 92

fn=(372)
0 24
cfn=(374)
calls=3 0 
0 2166
0 18

fn=(1924)
0 5210

totals: 17270484096
